P6/mips.vcd
$date
	Mon Nov 25 14:30:29 2024
$end
$version
	Icarus Verilog
$end
$timescale
	1ps
$end
$scope module mips_txt $end
$var wire 32 ! i_inst_rdata [31:0] $end
$var wire 32 " m_data_rdata [31:0] $end
$var wire 32 # w_inst_addr [31:0] $end
$var wire 1 $ w_grf_we $end
$var wire 32 % w_grf_wdata [31:0] $end
$var wire 5 & w_grf_addr [4:0] $end
$var wire 32 ' m_inst_addr [31:0] $end
$var wire 32 ( m_data_wdata [31:0] $end
$var wire 4 ) m_data_byteen [3:0] $end
$var wire 32 * m_data_addr [31:0] $end
$var wire 32 + i_inst_addr [31:0] $end
$var reg 1 , clk $end
$var reg 32 - fixed_addr [31:0] $end
$var reg 32 . fixed_wdata [31:0] $end
$var reg 1 / reset $end
$var integer 32 0 i [31:0] $end
$scope module uut $end
$var wire 1 1 clearDelaySlot $end
$var wire 1 , clk $end
$var wire 32 2 i_inst_addr [31:0] $end
$var wire 32 3 i_inst_rdata [31:0] $end
$var wire 32 4 instr_F [31:0] $end
$var wire 32 5 m_data_rdata [31:0] $end
$var wire 32 6 m_inst_addr [31:0] $end
$var wire 1 / reset $end
$var wire 5 7 w_grf_addr [4:0] $end
$var wire 32 8 w_grf_wdata [31:0] $end
$var wire 1 $ w_grf_we $end
$var wire 32 9 w_inst_addr [31:0] $end
$var wire 1 : zero $end
$var wire 1 ; stallPC $end
$var wire 1 < stallM2W $end
$var wire 1 = stallF2D $end
$var wire 1 > stallE2M $end
$var wire 1 ? stallD2E $end
$var wire 32 @ rt_cmp [31:0] $end
$var wire 5 A rt_E [4:0] $end
$var wire 5 B rt_D [4:0] $end
$var wire 32 C rs_cmp [31:0] $end
$var wire 5 D rs_E [4:0] $end
$var wire 5 E rs_D [4:0] $end
$var wire 32 F regwdata_W [31:0] $end
$var wire 5 G regaddr_W [4:0] $end
$var wire 5 H regaddr_M [4:0] $end
$var wire 5 I regaddr_E [4:0] $end
$var wire 5 J regaddr_D [4:0] $end
$var wire 1 K regWrite_W $end
$var wire 1 L regWrite_M $end
$var wire 1 M regWrite_E $end
$var wire 1 N regWrite_D $end
$var wire 3 O regDst_D [2:0] $end
$var wire 32 P rdata2_M [31:0] $end
$var wire 32 Q rdata2_E [31:0] $end
$var wire 32 R rdata2_D [31:0] $end
$var wire 32 S rdata1_E [31:0] $end
$var wire 32 T rdata1_D [31:0] $end
$var wire 5 U rd_D [4:0] $end
$var wire 32 V pc_W [31:0] $end
$var wire 32 W pc_M [31:0] $end
$var wire 32 X pc_F [31:0] $end
$var wire 32 Y pc_E [31:0] $end
$var wire 32 Z pc_D [31:0] $end
$var wire 32 [ nextpc_F [31:0] $end
$var wire 32 \ mem_res_W [31:0] $end
$var wire 32 ] mem_res_M [31:0] $end
$var wire 1 ^ memWrite_M $end
$var wire 1 _ memWrite_E $end
$var wire 1 ` memWrite_D $end
$var wire 1 a memToReg_W $end
$var wire 1 b memToReg_M $end
$var wire 1 c memToReg_E $end
$var wire 1 d memToReg_D $end
$var wire 3 e memByteen_M [2:0] $end
$var wire 3 f memByteen_E [2:0] $end
$var wire 3 g memByteen_D [2:0] $end
$var wire 1 h mdstart_E $end
$var wire 1 i mdstart_D $end
$var wire 3 j mdop_E [2:0] $end
$var wire 3 k mdop_D [2:0] $end
$var wire 32 l m_data_wdata [31:0] $end
$var wire 4 m m_data_byteen [3:0] $end
$var wire 32 n m_data_addr [31:0] $end
$var wire 1 o jump_W $end
$var wire 1 p jump_M $end
$var wire 1 q jump_E $end
$var wire 1 r jump_D $end
$var wire 1 s jr_D $end
$var wire 32 t instr_D [31:0] $end
$var wire 32 u imm32_E [31:0] $end
$var wire 32 v imm32_D [31:0] $end
$var wire 26 w imm26_D [25:0] $end
$var wire 16 x imm16_D [15:0] $end
$var wire 1 y hlwrite_E $end
$var wire 1 z hlwrite_D $end
$var wire 1 { hlsel_E $end
$var wire 1 | hlsel_D $end
$var wire 1 } hlread_E $end
$var wire 1 ~ hlread_D $end
$var wire 3 !" extOp_D [2:0] $end
$var wire 32 "" data_E [31:0] $end
$var wire 2 #" cmpOp_D [1:0] $end
$var wire 1 $" clrF2D $end
$var wire 1 %" clrE2M $end
$var wire 1 &" clrD2E $end
$var wire 1 '" busy_E $end
$var wire 1 (" branch_M $end
$var wire 1 )" branch_E $end
$var wire 1 *" branch_D $end
$var wire 32 +" alu_res_W [31:0] $end
$var wire 32 ," alu_res_M [31:0] $end
$var wire 32 -" alu_res_E [31:0] $end
$var wire 32 ." alu_B_E [31:0] $end
$var wire 1 /" aluSrc_E $end
$var wire 1 0" aluSrc_D $end
$var wire 3 1" aluOp_E [2:0] $end
$var wire 3 2" aluOp_D [2:0] $end
$var wire 32 3" aluB [31:0] $end
$var wire 32 4" aluA [31:0] $end
$var wire 32 5" LO_E [31:0] $end
$var wire 32 6" HLreg_E [31:0] $end
$var wire 32 7" HI_E [31:0] $end
$var wire 3 8" FowardBD [2:0] $end
$var wire 3 9" FowardB [2:0] $end
$var wire 3 :" FowardAD [2:0] $end
$var wire 3 ;" FowardA [2:0] $end
$scope module u_BE $end
$var wire 3 <" op [2:0] $end
$var wire 1 ^ memWrite $end
$var wire 32 =" data [31:0] $end
$var wire 32 >" addr [31:0] $end
$var reg 32 ?" addr_out [31:0] $end
$var reg 4 @" byteen [3:0] $end
$var reg 32 A" data_out [31:0] $end
$upscope $end
$scope module u_DE $end
$var wire 32 B" Din [31:0] $end
$var wire 2 C" addr [1:0] $end
$var wire 3 D" Op [2:0] $end
$var reg 32 E" Dout [31:0] $end
$upscope $end
$scope module u_DEReg $end
$var wire 1 , clk $end
$var wire 5 F" regaddr [4:0] $end
$var wire 1 G" reset $end
$var wire 1 ? stall $end
$var wire 5 H" rt [4:0] $end
$var wire 5 I" rs [4:0] $end
$var wire 1 N regWrite $end
$var wire 32 J" rdata2 [31:0] $end
$var wire 32 K" rdata1 [31:0] $end
$var wire 32 L" pc [31:0] $end
$var wire 1 ` memWrite $end
$var wire 1 d memToReg $end
$var wire 3 M" memByteen [2:0] $end
$var wire 1 i mdstart $end
$var wire 3 N" mdop [2:0] $end
$var wire 1 r jump $end
$var wire 32 O" imm32 [31:0] $end
$var wire 1 z hlwrite $end
$var wire 1 | hlsel $end
$var wire 1 ~ hlread $end
$var wire 1 *" branch $end
$var wire 1 0" aluSrc $end
$var wire 3 P" aluOp [2:0] $end
$var reg 3 Q" aluOp_out [2:0] $end
$var reg 1 /" aluSrc_out $end
$var reg 1 )" branch_out $end
$var reg 1 } hlread_out $end
$var reg 1 { hlsel_out $end
$var reg 1 y hlwrite_out $end
$var reg 32 R" imm32_out [31:0] $end
$var reg 1 q jump_out $end
$var reg 3 S" mdop_out [2:0] $end
$var reg 1 h mdstart_out $end
$var reg 3 T" memByteen_out [2:0] $end
$var reg 1 c memToReg_out $end
$var reg 1 _ memWrite_out $end
$var reg 32 U" pc_out [31:0] $end
$var reg 32 V" rdata1_out [31:0] $end
$var reg 32 W" rdata2_out [31:0] $end
$var reg 1 M regWrite_out $end
$var reg 5 X" regaddr_out [4:0] $end
$var reg 5 Y" rs_out [4:0] $end
$var reg 5 Z" rt_out [4:0] $end
$upscope $end
$scope module u_EMreg $end
$var wire 32 [" alures [31:0] $end
$var wire 1 )" branch $end
$var wire 1 , clk $end
$var wire 1 q jump $end
$var wire 3 \" memByteen [2:0] $end
$var wire 1 c memToReg $end
$var wire 1 _ memWrite $end
$var wire 32 ]" pc [31:0] $end
$var wire 32 ^" rdata2 [31:0] $end
$var wire 1 M regWrite $end
$var wire 5 _" regaddr [4:0] $end
$var wire 1 `" reset $end
$var wire 1 > stall $end
$var reg 32 a" alures_out [31:0] $end
$var reg 1 (" branch_out $end
$var reg 1 p jump_out $end
$var reg 3 b" memByteen_out [2:0] $end
$var reg 1 b memToReg_out $end
$var reg 1 ^ memWrite_out $end
$var reg 32 c" pc_out [31:0] $end
$var reg 32 d" rdata2_out [31:0] $end
$var reg 1 L regWrite_out $end
$var reg 5 e" regaddr_out [4:0] $end
$upscope $end
$scope module u_FDreg $end
$var wire 1 , clk $end
$var wire 32 f" instr [31:0] $end
$var wire 1 g" reset $end
$var wire 1 = stall $end
$var wire 32 h" pc [31:0] $end
$var reg 32 i" instr_out [31:0] $end
$var reg 32 j" pc_out [31:0] $end
$upscope $end
$scope module u_MulDiv $end
$var wire 32 k" a [31:0] $end
$var wire 32 l" b [31:0] $end
$var wire 1 , clk $end
$var wire 3 m" op [2:0] $end
$var wire 1 / reset $end
$var wire 1 { sel $end
$var wire 1 h start $end
$var wire 1 y we $end
$var reg 32 n" HI [31:0] $end
$var reg 32 o" LO [31:0] $end
$var reg 32 p" _HI [31:0] $end
$var reg 32 q" _LO [31:0] $end
$var reg 1 '" busy $end
$var reg 32 r" counter [31:0] $end
$upscope $end
$scope module u_PC $end
$var wire 1 , clk $end
$var wire 1 / reset $end
$var wire 1 ; stall $end
$var wire 32 s" next_pc [31:0] $end
$var reg 32 t" _pc [31:0] $end
$var reg 32 u" _pc_to_mem [31:0] $end
$var reg 32 v" pc [31:0] $end
$upscope $end
$scope module u_WBreg $end
$var wire 32 w" alures [31:0] $end
$var wire 1 , clk $end
$var wire 1 p jump $end
$var wire 1 b memToReg $end
$var wire 32 x" memres [31:0] $end
$var wire 32 y" pc [31:0] $end
$var wire 1 L regWrite $end
$var wire 5 z" regaddr [4:0] $end
$var wire 1 / reset $end
$var wire 1 < stall $end
$var reg 32 {" alures_out [31:0] $end
$var reg 1 o jump_out $end
$var reg 1 a memToReg_out $end
$var reg 32 |" memres_out [31:0] $end
$var reg 32 }" pc_out [31:0] $end
$var reg 1 K regWrite_out $end
$var reg 5 ~" regaddr_out [4:0] $end
$upscope $end
$scope module u_alu $end
$var wire 32 !# A [31:0] $end
$var wire 3 "# ALUOp [2:0] $end
$var wire 32 ## B [31:0] $end
$var reg 32 $# result [31:0] $end
$upscope $end
$scope module u_cmp $end
$var wire 32 %# A [31:0] $end
$var wire 32 &# B [31:0] $end
$var wire 2 '# cmpOp [1:0] $end
$var reg 1 : zero $end
$upscope $end
$scope module u_controller $end
$var wire 1 (# _add $end
$var wire 1 )# _and $end
$var wire 1 *# _div $end
$var wire 1 +# _divu $end
$var wire 1 ,# _jr $end
$var wire 1 -# _mfhi $end
$var wire 1 .# _mflo $end
$var wire 1 /# _mthi $end
$var wire 1 0# _mtlo $end
$var wire 1 1# _mult $end
$var wire 1 2# _multu $end
$var wire 1 3# _or $end
$var wire 1 4# _slt $end
$var wire 1 5# _sltu $end
$var wire 1 6# _sub $end
$var wire 1 0" aluSrc $end
$var wire 1 *" branch $end
$var wire 1 ~ hlread $end
$var wire 1 | hlsel $end
$var wire 1 z hlwrite $end
$var wire 32 7# instr [31:0] $end
$var wire 1 s jr $end
$var wire 1 r jump $end
$var wire 1 i mdstart $end
$var wire 1 d memToReg $end
$var wire 1 ` memWrite $end
$var wire 1 N regWrite $end
$var wire 3 8# regDst [2:0] $end
$var wire 3 9# memByteen [2:0] $end
$var wire 3 :# mdop [2:0] $end
$var wire 3 ;# extOp [2:0] $end
$var wire 2 <# cmpOp [1:0] $end
$var wire 3 =# aluOp [2:0] $end
$var wire 1 ># _sw $end
$var wire 1 ?# _sh $end
$var wire 1 @# _sb $end
$var wire 1 A# _ori $end
$var wire 1 B# _lw $end
$var wire 1 C# _lui $end
$var wire 1 D# _lh $end
$var wire 1 E# _lb $end
$var wire 1 F# _jal $end
$var wire 1 G# _j $end
$var wire 1 H# _bne $end
$var wire 1 I# _beq $end
$var wire 1 J# _andi $end
$var wire 1 K# _addi $end
$var wire 1 L# _R $end
$upscope $end
$scope module u_ext $end
$var wire 3 M# extOp [2:0] $end
$var wire 16 N# imm16 [15:0] $end
$var reg 32 O# out32 [31:0] $end
$upscope $end
$scope module u_grf $end
$var wire 1 , clk $end
$var wire 1 / reset $end
$var wire 5 P# waddr [4:0] $end
$var wire 32 Q# wdata [31:0] $end
$var wire 1 K wenable $end
$var wire 32 R# rdata2 [31:0] $end
$var wire 32 S# rdata1 [31:0] $end
$var wire 5 T# raddr2 [4:0] $end
$var wire 5 U# raddr1 [4:0] $end
$var integer 32 V# i [31:0] $end
$upscope $end
$scope module u_hazardcontrol $end
$var wire 1 *" branchD $end
$var wire 1 '" busyE $end
$var wire 1 1 clearDelaySlot $end
$var wire 1 ~ hlreadD $end
$var wire 1 z hlwriteD $end
$var wire 1 s jrD $end
$var wire 1 r jumpD $end
$var wire 1 p jumpM $end
$var wire 1 i mdstartD $end
$var wire 1 h mdstartE $end
$var wire 1 c memToRegE $end
$var wire 1 b memToRegM $end
$var wire 5 W# raE [4:0] $end
$var wire 5 X# raM [4:0] $end
$var wire 5 Y# raW [4:0] $end
$var wire 1 M regWriteE $end
$var wire 1 L regWriteM $end
$var wire 1 K regWriteW $end
$var wire 5 Z# rsE [4:0] $end
$var wire 5 [# rtE [4:0] $end
$var wire 1 : zero $end
$var wire 5 \# rtD [4:0] $end
$var wire 5 ]# rsD [4:0] $end
$var reg 1 &" ClrD2E $end
$var reg 1 %" ClrE2M $end
$var reg 1 $" ClrF2D $end
$var reg 3 ^# FowardA [2:0] $end
$var reg 3 _# FowardAD [2:0] $end
$var reg 3 `# FowardB [2:0] $end
$var reg 3 a# FowardBD [2:0] $end
$var reg 1 ? stallD2E $end
$var reg 1 > stallE2M $end
$var reg 1 = stallF2D $end
$var reg 1 < stallM2W $end
$var reg 1 ; stallPC $end
$upscope $end
$scope module u_insextractor $end
$var wire 32 b# instr [31:0] $end
$var reg 16 c# imm16 [15:0] $end
$var reg 26 d# imm26 [25:0] $end
$var reg 5 e# rd [4:0] $end
$var reg 5 f# rs [4:0] $end
$var reg 5 g# rt [4:0] $end
$upscope $end
$scope module u_nextpc $end
$var wire 32 h# _jr_target [31:0] $end
$var wire 32 i# _jump_target [31:0] $end
$var wire 1 *" branch $end
$var wire 16 j# imm16 [15:0] $end
$var wire 26 k# imm26 [25:0] $end
$var wire 32 l# imm32 [31:0] $end
$var wire 1 s jr $end
$var wire 1 r jump $end
$var wire 32 m# next_pc [31:0] $end
$var wire 32 n# pcD [31:0] $end
$var wire 32 o# pcF [31:0] $end
$var wire 1 : zero $end
$var wire 32 p# _pcF_plus_4 [31:0] $end
$var wire 32 q# _pcD_plus_4 [31:0] $end
$var wire 32 r# _mux3 [31:0] $end
$var wire 32 s# _mux2 [31:0] $end
$var wire 32 t# _mux1 [31:0] $end
$var wire 32 u# _extended_imm26 [31:0] $end
$var wire 32 v# _extended_imm16 [31:0] $end
$var wire 32 w# _branch_target [31:0] $end
$upscope $end
$upscope $end
$upscope $end
$enddefinitions $end
$comment Show the parameter values. $end
$dumpall
$end
#0
$dumpvars
bx w#
bx00 v#
bx00 u#
bx t#
bx s#
bx r#
bx q#
bx p#
bx o#
bx n#
bx m#
bx l#
bx k#
bx j#
bx00 i#
bx h#
bx g#
bx f#
bx e#
bx d#
bx c#
bx b#
bx a#
bx `#
bx _#
bx ^#
bx ]#
bx \#
bx [#
bx Z#
bx Y#
bx X#
bx W#
bx V#
bx U#
bx T#
bx S#
bx R#
bx Q#
bx P#
b0xxxxxxxxxxxxxxxx O#
bx N#
b0xx M#
xL#
xK#
xJ#
xI#
xH#
xG#
xF#
xE#
xD#
xC#
xB#
xA#
x@#
x?#
x>#
bx =#
b0x <#
b0xx ;#
b0xx :#
bx0 9#
b0xx 8#
bx 7#
x6#
x5#
x4#
x3#
x2#
x1#
x0#
x/#
x.#
x-#
x,#
x+#
x*#
x)#
x(#
b0x '#
bx &#
bx %#
bx $#
bx ##
bx "#
bx !#
bx ~"
bx }"
bx |"
bx {"
bx z"
bx y"
bx x"
bx w"
bx v"
bx u"
bx t"
bx s"
bx r"
bx q"
bx p"
bx o"
bx n"
bx m"
bx l"
bx k"
bx j"
bx i"
bx h"
1g"
bx f"
bx e"
bx d"
bx c"
bx b"
bx a"
1`"
bx _"
bx ^"
bx ]"
bx \"
bx ["
bx Z"
bx Y"
bx X"
bx W"
bx V"
bx U"
bx T"
bx S"
bx R"
bx Q"
bx P"
b0xxxxxxxxxxxxxxxx O"
b0xx N"
bx0 M"
bx L"
bx K"
bx J"
bx I"
bx H"
1G"
bx F"
bx E"
bx D"
bx C"
bx B"
bx A"
bx @"
bx ?"
bx >"
bx ="
bx <"
bx ;"
bx :"
bx 9"
bx 8"
bx 7"
bx 6"
bx 5"
bx 4"
bx 3"
bx 2"
bx 1"
x0"
x/"
bx ."
bx -"
bx ,"
bx +"
x*"
x)"
x("
x'"
x&"
x%"
x$"
b0x #"
bx ""
b0xx !"
x~
x}
x|
x{
xz
xy
bx x
bx w
b0xxxxxxxxxxxxxxxx v
bx u
bx t
xs
xr
xq
xp
xo
bx n
bx m
bx l
b0xx k
bx j
xi
xh
bx0 g
bx f
bx e
xd
xc
xb
xa
x`
x_
x^
bx ]
bx \
bx [
bx Z
bx Y
bx X
bx W
bx V
bx U
bx T
bx S
bx R
bx Q
bx P
b0xx O
xN
xM
xL
xK
bx J
bx I
bx H
bx G
bx F
bx E
bx D
bx C
bx B
bx A
bx @
x?
x>
x=
x<
x;
0:
bx 9
bx 8
bx 7
bx 6
bx 5
bx 4
bx 3
bx 2
z1
b1000000000000 0
1/
bx .
bx00 -
0,
bx +
bx *
bx )
bx (
bx '
bx &
bx %
x$
bx #
bx "
bx !
$end
#2000
0N
00"
b0 ""
b0 ["
b0 ."
b0 l"
b0 ##
b0 -"
b0 $#
0i
b0 J
b0 F"
b0 3"
b0 ^"
b0 4"
b0 k"
b0 !#
b11000000000100 [
b11000000000100 s"
b11000000000100 m#
b11000000000100 r#
b0 2"
b0 P"
b0 =#
b0 k
b0 N"
b0 :#
0~
0|
0z
b11000000000100 s#
b0 ]
b0 E"
b0 x"
b11000000000100 t#
b1100000000000000110000000010 4
b1100000000000000110000000010 f"
b1100000000000000110000000010 !
b1100000000000000110000000010 3
0s
0,#
0(#
06#
0)#
03#
04#
05#
01#
02#
0*#
0+#
0-#
0.#
0/#
00#
0d
b0 g
b0 M"
b0 9#
0`
x:
0*"
0r
b11000000000100 w#
b0 v
b0 O"
b0 O#
b0 "
b0 5
b0 B"
b0 -
b0 .
b11000000000100 p#
b11000000000000 +
b11000000000000 2
b11000000000000 X
b11000000000000 h"
b11000000000000 v"
b11000000000000 o#
1L#
0K#
0J#
b0 !"
b0 ;#
b0 M#
0C#
0A#
0E#
0D#
0B#
0@#
0?#
0>#
0I#
b0 #"
b0 '#
b0 <#
0H#
0G#
b0 O
b0 8#
0F#
b0 i#
b0 u#
b0 w
b0 d#
b0 k#
b0 v#
b0 x
b0 N#
b0 c#
b0 j#
b0 U
b0 e#
b0 B
b0 H"
b0 T#
b0 \#
b0 g#
b0 E
b0 I"
b0 U#
b0 ]#
b0 f#
b0 6"
b0 C"
b0 (
b0 l
b0 A"
b0 )
b0 m
b0 @"
b0 *
b0 n
b0 ?"
b0 8"
b0 a#
b0 :"
b0 _#
b0 9"
b0 `#
b0 ;"
b0 ^#
0$"
0&"
0%"
0<
0>
0?
0=
0;
b0 u"
b11000000000000 t"
b11000000000100 q#
b11000000000000 Z
b11000000000000 L"
b11000000000000 j"
b11000000000000 n#
b0 t
b0 i"
b0 7#
b0 b#
0h
0}
0y
0{
b0 j
b0 S"
b0 m"
b0 f
b0 T"
b0 \"
b0 A
b0 Z"
b0 [#
b0 D
b0 Y"
b0 Z#
0q
0)"
0_
0M
0c
0/"
b0 1"
b0 Q"
b0 "#
b0 u
b0 R"
b0 Q
b0 W"
b0 S
b0 V"
b0 I
b0 X"
b0 _"
b0 W#
b11000000000000 Y
b11000000000000 U"
b11000000000000 ]"
0'"
b0 5"
b0 o"
b0 7"
b0 n"
b0 q"
b0 p"
b0 r"
b0 e
b0 <"
b0 D"
b0 b"
0p
0("
0^
b0 P
b0 ="
b0 d"
0L
0b
b0 ,"
b0 >"
b0 a"
b0 w"
b0 H
b0 e"
b0 z"
b0 X#
b11000000000000 '
b11000000000000 6
b11000000000000 W
b11000000000000 c"
b11000000000000 y"
xo
xK
xa
bx \
bx |"
bx +"
bx {"
bx &
bx 7
bx G
bx ~"
bx P#
bx Y#
bx #
bx 9
bx V
bx }"
b100000 V#
b1000000000000 0
1,
#4000
0,
#6000
1:
b0 h#
b0 C
b0 %#
b0 l#
b0 @
b0 &#
b0 T
b0 K"
b0 S#
b0 R
b0 J"
b0 R#
b0 %
b0 8
b0 F
b0 Q#
0$
0o
0K
0a
b0 \
b0 |"
b0 +"
b0 {"
b0 &
b0 7
b0 G
b0 ~"
b0 P#
b0 Y#
b11000000000000 #
b11000000000000 9
b11000000000000 V
b11000000000000 }"
b1000000000000 0
b100000 V#
1,
#8000
0,
#10000
b100000 V#
b1000000000000 0
1,
#12000
0,
#14000
b1000000000000 0
b100000 V#
1,
#16000
0,
#18000
b100000 V#
b1000000000000 0
1,
#20000
0,
0g"
0G"
0`"
0/
#22000
1N
b11111 J
b11111 F"
b11000000001000 [
b11000000001000 s"
b11000000001000 m#
b11000000001000 r#
b11000000001000 s#
1r
b110000000010 v
b110000000010 O"
b110000000010 O#
b11000000001000 t#
b10000000000000000000000000001000 4
b10000000000000000000000000001000 f"
b10000000000000000000000000001000 !
b10000000000000000000000000001000 3
0L#
b10 O
b10 8#
1F#
b11000000001000 i#
b11000000001000 u#
b110000000010 w
b110000000010 d#
b110000000010 k#
b110000000001100 w#
b11000000001000 v#
b110000000010 x
b110000000010 N#
b110000000010 c#
b110000000010 j#
b1 U
b1 e#
b11000000001000 p#
b11000000000100 +
b11000000000100 2
b11000000000100 X
b11000000000100 h"
b11000000000100 v"
b11000000000100 o#
b1100000000000000110000000010 t
b1100000000000000110000000010 i"
b1100000000000000110000000010 7#
b1100000000000000110000000010 b#
b100 u"
b11000000000100 t"
1,
#24000
0,
#26000
10"
b1 !"
b1 ;#
b1 M#
b10 2"
b10 P"
b10 =#
1d
b11000000001100 [
b11000000001100 s"
b11000000001100 m#
b11000000001100 r#
b11000000001100 t#
b10011111000000000000000000010 4
b10011111000000000000000000010 f"
b10011111000000000000000000010 !
b10011111000000000000000000010 3
b10 g
b10 M"
b10 9#
0r
b0 J
b0 F"
b11000000001100 s#
b1000 v
b1000 O"
b1000 O#
b11000000001100 p#
b11000000001000 +
b11000000001000 2
b11000000001000 X
b11000000001000 h"
b11000000001000 v"
b11000000001000 o#
1E#
b0 O
b0 8#
0F#
b100000 i#
b100000 u#
b1000 w
b1000 d#
b1000 k#
b100000 v#
b1000 x
b1000 N#
b1000 c#
b1000 j#
b0 U
b0 e#
b1000 u"
b11000000001000 t"
b11000000101000 w#
b11000000001000 q#
b11000000000100 Z
b11000000000100 L"
b11000000000100 j"
b11000000000100 n#
b10000000000000000000000000001000 t
b10000000000000000000000000001000 i"
b10000000000000000000000000001000 7#
b10000000000000000000000000001000 b#
1q
1M
b110000000010 u
b110000000010 R"
b11111 I
b11111 X"
b11111 _"
b11111 W#
1,
#28000
0,
#30000
00"
0N
0:
b11000000001000 h#
b11000000001000 C
b11000000001000 %#
b11000000001000 l#
b0 !"
b0 ;#
b0 M#
b0 2"
b0 P"
b0 =#
b11000000010000 [
b11000000010000 s"
b11000000010000 m#
b11000000010000 r#
b1000 ""
b1000 ["
0d
b100 :"
b100 _#
b11000000010000 s#
b1000 -"
b1000 $#
1G"
b0 g
b0 M"
b0 9#
1*"
b10 v
b10 O"
b10 O#
b11000000010000 t#
b100000 4
b100000 f"
b100000 !
b100000 3
b1000 ."
b1000 l"
b1000 ##
1&"
1=
1;
0E#
1I#
b1111100000000000000000001000 i#
b1111100000000000000000001000 u#
b11111000000000000000000010 w
b11111000000000000000000010 d#
b11111000000000000000000010 k#
b1000 v#
b10 x
b10 N#
b10 c#
b10 j#
b11111 E
b11111 I"
b11111 U#
b11111 ]#
b11111 f#
b11000000010000 p#
b11000000001100 +
b11000000001100 2
b11000000001100 X
b11000000001100 h"
b11000000001100 v"
b11000000001100 o#
1p
1L
b11111 H
b11111 e"
b11111 z"
b11111 X#
b10 f
b10 T"
b10 \"
0q
1c
1/"
b10 1"
b10 Q"
b10 "#
b1000 u
b1000 R"
b0 I
b0 X"
b0 _"
b0 W#
b11000000000100 Y
b11000000000100 U"
b11000000000100 ]"
b11000000010100 w#
b11000000001100 q#
b11000000001000 Z
b11000000001000 L"
b11000000001000 j"
b11000000001000 n#
b10011111000000000000000000010 t
b10011111000000000000000000010 i"
b10011111000000000000000000010 7#
b10011111000000000000000000010 b#
b1100 u"
b11000000001100 t"
1,
#32000
0,
#34000
b0 ""
b0 ["
b1000 -
b11000000001000 T
b11000000001000 K"
b11000000001000 S#
b0 -"
b0 $#
b0 ."
b0 l"
b0 ##
b1000 *
b1000 n
b1000 ?"
b11000000001000 %
b11000000001000 8
b11000000001000 F
b11000000001000 Q#
1$
b11 8"
b11 a#
b1 :"
b1 _#
b11 9"
b11 `#
b11 ;"
b11 ^#
1&"
1=
1;
b0 f
b0 T"
b0 \"
0M
0c
0/"
b0 1"
b0 Q"
b0 "#
b0 u
b0 R"
b11000000000000 Y
b11000000000000 U"
b11000000000000 ]"
b10 e
b10 <"
b10 D"
b10 b"
0p
1b
b1000 ,"
b1000 >"
b1000 a"
b1000 w"
b0 H
b0 e"
b0 z"
b0 X#
b11000000000100 '
b11000000000100 6
b11000000000100 W
b11000000000100 c"
b11000000000100 y"
1o
1K
b11111 &
b11111 7
b11111 G
b11111 ~"
b11111 P#
b11111 Y#
1,
#36000
0,
#38000
b11000000010000 [
b11000000010000 s"
b11000000010000 m#
b11000000010000 r#
b11000000010000 s#
b11000000010000 t#
0:
b11000000001000 h#
b11000000001000 C
b11000000001000 %#
b11000000001000 l#
b11000000001000 T
b11000000001000 K"
b11000000001000 S#
0G"
b0 -
b0 %
b0 8
b0 F
b0 Q#
b0 :"
b0 _#
0&"
0=
0;
b0 *
b0 n
b0 ?"
0o
1a
b1000 +"
b1000 {"
b0 &
b0 7
b0 G
b0 ~"
b0 P#
b0 Y#
b11000000000100 #
b11000000000100 9
b11000000000100 V
b11000000000100 }"
b0 e
b0 <"
b0 D"
b0 b"
0L
0b
b0 ,"
b0 >"
b0 a"
b0 w"
b11000000000000 '
b11000000000000 6
b11000000000000 W
b11000000000000 c"
b11000000000000 y"
1,
#40000
0,
#42000
1N
b10 2"
b10 P"
b10 =#
b1 O
b1 8#
1:
b0 h#
b0 C
b0 %#
b0 l#
b11000000010100 [
b11000000010100 s"
b11000000010100 m#
b11000000010100 r#
b11000000001000 4"
b11000000001000 k"
b11000000001000 !#
b11000000010100 s#
b11000000010100 t#
b11111000000000100000100000 4
b11111000000000100000100000 f"
b11111000000000100000100000 !
b11111000000000100000100000 3
1(#
0*"
b100000 v
b100000 O"
b100000 O#
b0 T
b0 K"
b0 S#
b11000000010100 p#
b11000000010000 +
b11000000010000 2
b11000000010000 X
b11000000010000 h"
b11000000010000 v"
b11000000010000 o#
1L#
0I#
b10000000 i#
b10000000 u#
b100000 w
b100000 d#
b100000 k#
b10000000 v#
b100000 x
b100000 N#
b100000 c#
b100000 j#
b0 E
b0 I"
b0 U#
b0 ]#
b0 f#
b0 8"
b0 a#
b0 9"
b0 `#
b0 ;"
b0 ^#
0$
b10000 u"
b11000000010000 t"
b11000010010000 w#
b11000000010000 q#
b11000000001100 Z
b11000000001100 L"
b11000000001100 j"
b11000000001100 n#
b100000 t
b100000 i"
b100000 7#
b100000 b#
b11111 D
b11111 Y"
b11111 Z#
1)"
b10 u
b10 R"
b11000000001000 S
b11000000001000 V"
b11000000001000 Y
b11000000001000 U"
b11000000001000 ]"
0K
0a
b0 +"
b0 {"
b11000000000000 #
b11000000000000 9
b11000000000000 V
b11000000000000 }"
1,
#44000
0,
#46000
0:
b11000000001000 h#
b11000000001000 C
b11000000001000 %#
b11000000001000 l#
b0 4"
b0 k"
b0 !#
b11000000011000 [
b11000000011000 s"
b11000000011000 m#
b11000000011000 r#
b1 J
b1 F"
b11000000011000 s#
b0 ""
b0 ["
b100000100000 v
b100000100000 O"
b100000100000 O#
b11000000001000 T
b11000000001000 K"
b11000000001000 S#
b11000000011000 t#
b11111000000001000000100000 4
b11111000000001000000100000 f"
b11111000000001000000100000 !
b11111000000001000000100000 3
b0 -"
b0 $#
b1111100000000010000010000000 i#
b1111100000000010000010000000 u#
b11111000000000100000100000 w
b11111000000000100000100000 d#
b11111000000000100000100000 k#
b10000010000000 v#
b100000100000 x
b100000100000 N#
b100000100000 c#
b100000100000 j#
b1 U
b1 e#
b11111 E
b11111 I"
b11111 U#
b11111 ]#
b11111 f#
b11000000011000 p#
b11000000010100 +
b11000000010100 2
b11000000010100 X
b11000000010100 h"
b11000000010100 v"
b11000000010100 o#
1("
b11000000001000 '
b11000000001000 6
b11000000001000 W
b11000000001000 c"
b11000000001000 y"
b0 D
b0 Y"
b0 Z#
0)"
1M
b10 1"
b10 Q"
b10 "#
b100000 u
b100000 R"
b0 S
b0 V"
b11000000001100 Y
b11000000001100 U"
b11000000001100 ]"
b101000010010100 w#
b11000000010100 q#
b11000000010000 Z
b11000000010000 L"
b11000000010000 j"
b11000000010000 n#
b11111000000000100000100000 t
b11111000000000100000100000 i"
b11111000000000100000100000 7#
b11111000000000100000100000 b#
b10100 u"
b11000000010100 t"
1,
#48000
0,
