P5/mipst.vcd
$date
	Wed Nov 20 14:47:14 2024
$end
$version
	Icarus Verilog
$end
$timescale
	1ps
$end
$scope module tb_mips $end
$var reg 1 ! clk $end
$var reg 1 " reset $end
$scope module u_mips $end
$var wire 1 # clearDelaySlot $end
$var wire 1 ! clk $end
$var wire 1 " reset $end
$var wire 1 $ zero_E $end
$var wire 1 % zero $end
$var wire 1 & stallPC $end
$var wire 1 ' stallF2D $end
$var wire 1 ( stallD2E $end
$var wire 32 ) rt_cmp [31:0] $end
$var wire 5 * rt_E [4:0] $end
$var wire 5 + rt_D [4:0] $end
$var wire 32 , rs_cmp [31:0] $end
$var wire 5 - rs_E [4:0] $end
$var wire 5 . rs_D [4:0] $end
$var wire 32 / regwdata_W [31:0] $end
$var wire 5 0 regaddr_W [4:0] $end
$var wire 5 1 regaddr_M [4:0] $end
$var wire 5 2 regaddr_E [4:0] $end
$var wire 5 3 regaddr_D [4:0] $end
$var wire 1 4 regWrite_W $end
$var wire 1 5 regWrite_M $end
$var wire 1 6 regWrite_E $end
$var wire 1 7 regWrite_D $end
$var wire 3 8 regDst_D [2:0] $end
$var wire 32 9 rdata2_M [31:0] $end
$var wire 32 : rdata2_E [31:0] $end
$var wire 32 ; rdata2_D [31:0] $end
$var wire 32 < rdata1_E [31:0] $end
$var wire 32 = rdata1_D [31:0] $end
$var wire 5 > rd_D [4:0] $end
$var wire 32 ? pc_W [31:0] $end
$var wire 32 @ pc_M [31:0] $end
$var wire 32 A pc_F [31:0] $end
$var wire 32 B pc_E [31:0] $end
$var wire 32 C pc_D [31:0] $end
$var wire 32 D nextpc_F [31:0] $end
$var wire 32 E mem_res_W [31:0] $end
$var wire 32 F mem_res_M [31:0] $end
$var wire 1 G memWrite_M $end
$var wire 1 H memWrite_E $end
$var wire 1 I memWrite_D $end
$var wire 1 J memToReg_W $end
$var wire 1 K memToReg_M $end
$var wire 1 L memToReg_E $end
$var wire 1 M memToReg_D $end
$var wire 1 N jump_W $end
$var wire 1 O jump_M $end
$var wire 1 P jump_E $end
$var wire 1 Q jump_D $end
$var wire 1 R jr_D $end
$var wire 32 S instr_F [31:0] $end
$var wire 32 T instr_D [31:0] $end
$var wire 32 U imm32_E [31:0] $end
$var wire 32 V imm32_D [31:0] $end
$var wire 26 W imm26_D [25:0] $end
$var wire 16 X imm16_D [15:0] $end
$var wire 3 Y extOp_D [2:0] $end
$var wire 1 Z clrF2D $end
$var wire 1 [ clrE2M $end
$var wire 1 \ clrD2E $end
$var wire 1 ] branch_M $end
$var wire 1 ^ branch_E $end
$var wire 1 _ branch_D $end
$var wire 32 ` alu_res_W [31:0] $end
$var wire 32 a alu_res_M [31:0] $end
$var wire 32 b alu_res_E [31:0] $end
$var wire 32 c alu_B_E [31:0] $end
$var wire 1 d aluSrc_E $end
$var wire 1 e aluSrc_D $end
$var wire 3 f aluOp_E [2:0] $end
$var wire 3 g aluOp_D [2:0] $end
$var wire 32 h aluB [31:0] $end
$var wire 32 i aluA [31:0] $end
$var wire 3 j FowardBD [2:0] $end
$var wire 3 k FowardB [2:0] $end
$var wire 3 l FowardAD [2:0] $end
$var wire 3 m FowardA [2:0] $end
$scope module u_DEReg $end
$var wire 1 ! clk $end
$var wire 5 n regaddr [4:0] $end
$var wire 1 o reset $end
$var wire 1 ( stall $end
$var wire 5 p rt [4:0] $end
$var wire 5 q rs [4:0] $end
$var wire 1 7 regWrite $end
$var wire 32 r rdata2 [31:0] $end
$var wire 32 s rdata1 [31:0] $end
$var wire 32 t pc [31:0] $end
$var wire 1 I memWrite $end
$var wire 1 M memToReg $end
$var wire 1 Q jump $end
$var wire 32 u imm32 [31:0] $end
$var wire 1 _ branch $end
$var wire 1 e aluSrc $end
$var wire 3 v aluOp [2:0] $end
$var reg 3 w aluOp_out [2:0] $end
$var reg 1 d aluSrc_out $end
$var reg 1 ^ branch_out $end
$var reg 32 x imm32_out [31:0] $end
$var reg 1 P jump_out $end
$var reg 1 L memToReg_out $end
$var reg 1 H memWrite_out $end
$var reg 32 y pc_out [31:0] $end
$var reg 32 z rdata1_out [31:0] $end
$var reg 32 { rdata2_out [31:0] $end
$var reg 1 6 regWrite_out $end
$var reg 5 | regaddr_out [4:0] $end
$var reg 5 } rs_out [4:0] $end
$var reg 5 ~ rt_out [4:0] $end
$upscope $end
$scope module u_EMreg $end
$var wire 1 ^ branch $end
$var wire 1 ! clk $end
$var wire 1 P jump $end
$var wire 1 L memToReg $end
$var wire 1 H memWrite $end
$var wire 32 !" pc [31:0] $end
$var wire 32 "" rdata2 [31:0] $end
$var wire 1 6 regWrite $end
$var wire 5 #" regaddr [4:0] $end
$var wire 1 $" reset $end
$var wire 32 %" alures [31:0] $end
$var reg 32 &" alures_out [31:0] $end
$var reg 1 ] branch_out $end
$var reg 1 O jump_out $end
$var reg 1 K memToReg_out $end
$var reg 1 G memWrite_out $end
$var reg 32 '" pc_out [31:0] $end
$var reg 32 (" rdata2_out [31:0] $end
$var reg 1 5 regWrite_out $end
$var reg 5 )" regaddr_out [4:0] $end
$upscope $end
$scope module u_FDreg $end
$var wire 1 ! clk $end
$var wire 1 *" reset $end
$var wire 1 ' stall $end
$var wire 32 +" pc [31:0] $end
$var wire 32 ," instr [31:0] $end
$var reg 32 -" instr_out [31:0] $end
$var reg 32 ." pc_out [31:0] $end
$upscope $end
$scope module u_WBreg $end
$var wire 32 /" alures [31:0] $end
$var wire 1 ! clk $end
$var wire 1 O jump $end
$var wire 1 K memToReg $end
$var wire 32 0" pc [31:0] $end
$var wire 1 5 regWrite $end
$var wire 5 1" regaddr [4:0] $end
$var wire 1 " reset $end
$var wire 32 2" memres [31:0] $end
$var reg 32 3" alures_out [31:0] $end
$var reg 1 N jump_out $end
$var reg 1 J memToReg_out $end
$var reg 32 4" memres_out [31:0] $end
$var reg 32 5" pc_out [31:0] $end
$var reg 1 4 regWrite_out $end
$var reg 5 6" regaddr_out [4:0] $end
$upscope $end
$scope module u_alu $end
$var wire 32 7" A [31:0] $end
$var wire 3 8" ALUOp [2:0] $end
$var wire 32 9" B [31:0] $end
$var reg 32 :" result [31:0] $end
$var reg 1 $ zero $end
$upscope $end
$scope module u_controller $end
$var wire 1 ;" _add $end
$var wire 1 <" _jalr $end
$var wire 1 =" _jr $end
$var wire 1 >" _sub $end
$var wire 1 e aluSrc $end
$var wire 1 _ branch $end
$var wire 32 ?" instr [31:0] $end
$var wire 1 R jr $end
$var wire 1 Q jump $end
$var wire 1 M memToReg $end
$var wire 1 I memWrite $end
$var wire 1 7 regWrite $end
$var wire 3 @" regDst [2:0] $end
$var wire 3 A" extOp [2:0] $end
$var wire 3 B" aluOp [2:0] $end
$var wire 1 C" _sw $end
$var wire 1 D" _ori $end
$var wire 1 E" _lw $end
$var wire 1 F" _lui $end
$var wire 1 G" _jal $end
$var wire 1 H" _j $end
$var wire 1 I" _beq $end
$var wire 1 J" _R $end
$upscope $end
$scope module u_dm $end
$var wire 32 K" addr [31:0] $end
$var wire 1 ! clk $end
$var wire 1 G memWrite $end
$var wire 32 L" pc [31:0] $end
$var wire 1 " reset $end
$var wire 32 M" writeData [31:0] $end
$var reg 32 N" readData [31:0] $end
$var integer 32 O" i [31:0] $end
$upscope $end
$scope module u_ext $end
$var wire 3 P" extOp [2:0] $end
$var wire 16 Q" imm16 [15:0] $end
$var reg 32 R" out32 [31:0] $end
$upscope $end
$scope module u_grf $end
$var wire 32 S" PC [31:0] $end
$var wire 1 ! clk $end
$var wire 1 " reset $end
$var wire 5 T" waddr [4:0] $end
$var wire 32 U" wdata [31:0] $end
$var wire 1 4 wenable $end
$var wire 32 V" rdata2 [31:0] $end
$var wire 32 W" rdata1 [31:0] $end
$var wire 5 X" raddr2 [4:0] $end
$var wire 5 Y" raddr1 [4:0] $end
$var integer 32 Z" i [31:0] $end
$upscope $end
$scope module u_hazardcontrol $end
$var wire 1 _ branchD $end
$var wire 1 # clearDelaySlot $end
$var wire 1 R jrD $end
$var wire 1 Q jumpD $end
$var wire 1 O jumpM $end
$var wire 1 L memToRegE $end
$var wire 1 K memToRegM $end
$var wire 5 [" raE [4:0] $end
$var wire 5 \" raM [4:0] $end
$var wire 5 ]" raW [4:0] $end
$var wire 1 6 regWriteE $end
$var wire 1 5 regWriteM $end
$var wire 1 4 regWriteW $end
$var wire 5 ^" rsE [4:0] $end
$var wire 5 _" rtE [4:0] $end
$var wire 1 % zero $end
$var wire 5 `" rtD [4:0] $end
$var wire 5 a" rsD [4:0] $end
$var reg 1 \ ClrD2E $end
$var reg 1 [ ClrE2M $end
$var reg 1 Z ClrF2D $end
$var reg 3 b" FowardA [2:0] $end
$var reg 3 c" FowardAD [2:0] $end
$var reg 3 d" FowardB [2:0] $end
$var reg 3 e" FowardBD [2:0] $end
$var reg 1 ( stallD2E $end
$var reg 1 ' stallF2D $end
$var reg 1 & stallPC $end
$upscope $end
$scope module u_im $end
$var wire 1 ! clk $end
$var wire 1 " reset $end
$var wire 1 & stall $end
$var wire 32 f" next_pc [31:0] $end
$var reg 32 g" _pc [31:0] $end
$var reg 32 h" _pc_to_mem [31:0] $end
$var reg 32 i" instr [31:0] $end
$var reg 32 j" pc [31:0] $end
$upscope $end
$scope module u_insextractor $end
$var wire 32 k" instr [31:0] $end
$var reg 16 l" imm16 [15:0] $end
$var reg 26 m" imm26 [25:0] $end
$var reg 5 n" rd [4:0] $end
$var reg 5 o" rs [4:0] $end
$var reg 5 p" rt [4:0] $end
$upscope $end
$scope module u_nextpc $end
$var wire 32 q" _jr_target [31:0] $end
$var wire 32 r" _jump_target [31:0] $end
$var wire 1 _ branch $end
$var wire 16 s" imm16 [15:0] $end
$var wire 26 t" imm26 [25:0] $end
$var wire 32 u" imm32 [31:0] $end
$var wire 1 R jr $end
$var wire 1 Q jump $end
$var wire 32 v" next_pc [31:0] $end
$var wire 32 w" pcD [31:0] $end
$var wire 32 x" pcF [31:0] $end
$var wire 1 % zero $end
$var wire 32 y" _pcF_plus_4 [31:0] $end
$var wire 32 z" _pcD_plus_4 [31:0] $end
$var wire 32 {" _mux3 [31:0] $end
$var wire 32 |" _mux2 [31:0] $end
$var wire 32 }" _mux1 [31:0] $end
$var wire 32 ~" _extended_imm26 [31:0] $end
$var wire 32 !# _extended_imm16 [31:0] $end
$var wire 32 "# _branch_target [31:0] $end
$upscope $end
$upscope $end
$upscope $end
$enddefinitions $end
$comment Show the parameter values. $end
$dumpall
$end
#0
$dumpvars
bx "#
bx00 !#
bx00 ~"
bx }"
bx |"
bx {"
bx z"
bx y"
bx x"
bx w"
bx v"
bx u"
bx t"
bx s"
bx00 r"
bx q"
bx p"
bx o"
bx n"
bx m"
bx l"
bx k"
bx j"
bx i"
bx h"
bx g"
bx f"
bx e"
bx d"
bx c"
bx b"
bx a"
bx `"
bx _"
bx ^"
bx ]"
bx \"
bx ["
bx Z"
bx Y"
bx X"
bx W"
bx V"
bx U"
bx T"
bx S"
b0xxxxxxxxxxxxxxxx R"
bx Q"
b0xx P"
b0 O"
bx N"
bx M"
bx L"
bx K"
xJ"
xI"
xH"
xG"
xF"
xE"
xD"
xC"
b0xx B"
b0xx A"
b0xx @"
bx ?"
x>"
x="
x<"
x;"
bx :"
bx 9"
bx 8"
bx 7"
bx 6"
bx 5"
bx 4"
bx 3"
bx 2"
bx 1"
bx 0"
bx /"
bx ."
bx -"
bx ,"
bx +"
1*"
bx )"
bx ("
bx '"
bx &"
bx %"
1$"
bx #"
bx ""
bx !"
bx ~
bx }
bx |
bx {
bx z
bx y
bx x
bx w
b0xx v
b0xxxxxxxxxxxxxxxx u
bx t
bx s
bx r
bx q
bx p
1o
bx n
bx m
bx l
bx k
bx j
bx i
bx h
b0xx g
bx f
xe
xd
bx c
bx b
bx a
bx `
x_
x^
x]
x\
x[
xZ
b0xx Y
bx X
bx W
b0xxxxxxxxxxxxxxxx V
bx U
bx T
bx S
xR
xQ
xP
xO
xN
xM
xL
xK
xJ
xI
xH
xG
bx F
bx E
bx D
bx C
bx B
bx A
bx @
bx ?
bx >
bx =
bx <
bx ;
bx :
bx 9
b0xx 8
x7
x6
x5
x4
bx 3
bx 2
bx 1
bx 0
bx /
bx .
bx -
bx ,
bx +
bx *
bx )
x(
x'
x&
x%
x$
z#
1"
0!
$end
#5000
07
1%
b0 q"
b0 ,
b0 u"
b0 )
1$
b0 c
b0 9"
b0 b
b0 %"
b0 :"
0e
b11000000000100 D
b11000000000100 f"
b11000000000100 v"
b11000000000100 {"
b0 3
b0 n
b0 h
b0 ""
b0 i
b0 7"
0R
b0 g
b0 v
b0 B"
b11000000000100 |"
b11000000000100 }"
0="
0<"
0;"
0>"
0Q
b11000000000100 "#
b0 V
b0 u
b0 R"
b0 =
b0 s
b0 W"
b0 ;
b0 r
b0 V"
b0 /
b0 U"
b110100100001000011000001000000 S
b110100100001000011000001000000 ,"
b110100100001000011000001000000 i"
b11000000000100 y"
b11000000000000 A
b11000000000000 +"
b11000000000000 j"
b11000000000000 x"
1J"
b0 Y
b0 A"
b0 P"
0F"
0D"
0M
0E"
0I
0C"
0_
0I"
0H"
b0 8
b0 @"
0G"
b0 r"
b0 ~"
b0 W
b0 m"
b0 t"
b0 !#
b0 X
b0 Q"
b0 l"
b0 s"
b0 >
b0 n"
b0 +
b0 p
b0 X"
b0 `"
b0 p"
b0 .
b0 q
b0 Y"
b0 a"
b0 o"
b0 F
b0 2"
b0 N"
b0 j
b0 e"
b0 l
b0 c"
b0 k
b0 d"
b0 m
b0 b"
0Z
0\
0[
0(
0'
0&
b0 h"
b11000000000000 g"
b11000000000100 z"
b11000000000000 C
b11000000000000 t
b11000000000000 ."
b11000000000000 w"
b0 T
b0 -"
b0 ?"
b0 k"
b0 *
b0 ~
b0 _"
b0 -
b0 }
b0 ^"
0P
0^
0H
06
0L
0d
b0 f
b0 w
b0 8"
b0 U
b0 x
b0 :
b0 {
b0 <
b0 z
b0 2
b0 |
b0 #"
b0 ["
b11000000000000 B
b11000000000000 y
b11000000000000 !"
0O
0]
0G
b0 9
b0 ("
b0 M"
05
0K
b0 a
b0 &"
b0 /"
b0 K"
b0 1
b0 )"
b0 1"
b0 \"
b11000000000000 @
b11000000000000 '"
b11000000000000 0"
b11000000000000 L"
0N
04
0J
b0 E
b0 4"
b0 `
b0 3"
b0 0
b0 6"
b0 T"
b0 ]"
b11000000000000 ?
b11000000000000 5"
b11000000000000 S"
b100000 Z"
b110000000000 O"
1!
#10000
0!
#15000
b110000000000 O"
b100000 Z"
1!
#20000
0*"
0o
0$"
0!
0"
#25000
17
b11000000001000 D
b11000000001000 f"
b11000000001000 v"
b11000000001000 {"
1e
b11000000001000 |"
b11000000001000 }"
b1 g
b1 v
b1 B"
b11000001000000 V
b11000001000000 u
b11000001000000 R"
b100 3
b100 n
b10101100000001000000000000000000 S
b10101100000001000000000000000000 ,"
b10101100000001000000000000000000 i"
b11000000001000 y"
b11000000000100 A
b11000000000100 +"
b11000000000100 j"
b11000000000100 x"
0J"
1D"
b10000100001100000100000000 r"
b10000100001100000100000000 ~"
b100001000011000001000000 W
b100001000011000001000000 m"
b100001000011000001000000 t"
b1111000100000100 "#
b1100000100000000 !#
b11000001000000 X
b11000001000000 Q"
b11000001000000 l"
b11000001000000 s"
b110 >
b110 n"
b100 +
b100 p
b100 X"
b100 `"
b100 p"
b100 .
b100 q
b100 Y"
b100 a"
b100 o"
b100 h"
b11000000000100 g"
b110100100001000011000001000000 T
b110100100001000011000001000000 -"
b110100100001000011000001000000 ?"
b110100100001000011000001000000 k"
1!
#30000
0!
#35000
07
b11000000001100 D
b11000000001100 f"
b11000000001100 v"
b11000000001100 {"
b11000000001100 |"
b11000001000000 b
b11000001000000 %"
b11000001000000 :"
0$
b10 g
b10 v
b10 B"
b1 Y
b1 A"
b1 P"
b0 V
b0 u
b0 R"
b11000000001100 }"
b11000001000000 c
b11000001000000 9"
0D"
1I
1C"
b100000000000000000000 r"
b100000000000000000000 ~"
b1000000000000000000 W
b1000000000000000000 m"
b1000000000000000000 t"
b0 !#
b0 X
b0 Q"
b0 l"
b0 s"
b0 >
b0 n"
b0 .
b0 q
b0 Y"
b0 a"
b0 o"
b110100001000010011000000100001 S
b110100001000010011000000100001 ,"
b110100001000010011000000100001 i"
b11000000001100 y"
b11000000001000 A
b11000000001000 +"
b11000000001000 j"
b11000000001000 x"
b100 *
b100 ~
b100 _"
b100 -
b100 }
b100 ^"
16
1d
b1 f
b1 w
b1 8"
b11000001000000 U
b11000001000000 x
b100 2
b100 |
b100 #"
b100 ["
b11000000001000 "#
b11000000001000 z"
b11000000000100 C
b11000000000100 t
b11000000000100 ."
b11000000000100 w"
b10101100000001000000000000000000 T
b10101100000001000000000000000000 -"
b10101100000001000000000000000000 ?"
b10101100000001000000000000000000 k"
b1000 h"
b11000000001000 g"
1!
#40000
0!
#45000
17
b11000000010000 D
b11000000010000 f"
b11000000010000 v"
b11000000010000 {"
b11000000010000 |"
1e
b11000001000000 h
b11000001000000 ""
b11000000010000 }"
b1 g
b1 v
b1 B"
b0 Y
b0 A"
b0 P"
b11000000100001 V
b11000000100001 u
b11000000100001 R"
b1 3
b1 n
b10101100000000010000000000000100 S
b10101100000000010000000000000100 ,"
b10101100000000010000000000000100 i"
b11000000010000 y"
b11000000001100 A
b11000000001100 +"
b11000000001100 j"
b11000000001100 x"
1D"
0I
0C"
b100001001100000010000100 r"
b100001001100000010000100 ~"
b1000010011000000100001 W
b1000010011000000100001 m"
b1000010011000000100001 t"
b1100000010000100 !#
b11000000100001 X
b11000000100001 Q"
b11000000100001 l"
b11000000100001 s"
b110 >
b110 n"
b1 +
b1 p
b1 X"
b1 `"
b1 p"
b1 .
b1 q
b1 Y"
b1 a"
b1 o"
b0 b
b0 %"
b0 :"
1$
b0 c
b0 9"
bx F
bx 2"
bx N"
b10 k
b10 d"
b1100 h"
b11000000001100 g"
b1111000010010000 "#
b11000000001100 z"
b11000000001000 C
b11000000001000 t
b11000000001000 ."
b11000000001000 w"
b110100001000010011000000100001 T
b110100001000010011000000100001 -"
b110100001000010011000000100001 ?"
b110100001000010011000000100001 k"
b0 -
b0 }
b0 ^"
1H
06
b10 f
b10 w
b10 8"
b0 U
b0 x
b11000000000100 B
b11000000000100 y
b11000000000100 !"
15
b11000001000000 a
b11000001000000 &"
b11000001000000 /"
b11000001000000 K"
b100 1
b100 )"
b100 1"
b100 \"
1!
#50000
0!
#55000
07
b11000000010100 D
b11000000010100 f"
b11000000010100 v"
b11000000010100 {"
b11000000010100 |"
b11000001000000 /
b11000001000000 U"
b0 h
b0 ""
b10 g
b10 v
b10 B"
b1 Y
b1 A"
b1 P"
b100 V
b100 u
b100 R"
b11000000010100 }"
b0 F
b0 2"
b0 N"
b11000000100001 b
b11000000100001 %"
b11000000100001 :"
0$
b11000000100001 c
b11000000100001 9"
b0 k
b0 d"
0D"
1I
1C"
b1000000000000010000 r"
b1000000000000010000 ~"
b10000000000000100 W
b10000000000000100 m"
b10000000000000100 t"
b10000 !#
b100 X
b100 Q"
b100 l"
b100 s"
b0 >
b0 n"
b0 .
b0 q
b0 Y"
b0 a"
b0 o"
b110100001000010011000000100010 S
b110100001000010011000000100010 ,"
b110100001000010011000000100010 i"
b11000000010100 y"
b11000000010000 A
b11000000010000 +"
b11000000010000 j"
b11000000010000 x"
14
bx E
bx 4"
b11000001000000 `
b11000001000000 3"
b100 0
b100 6"
b100 T"
b100 ]"
1G
b11000001000000 9
b11000001000000 ("
b11000001000000 M"
05
b0 a
b0 &"
b0 /"
b0 K"
b11000000000100 @
b11000000000100 '"
b11000000000100 0"
b11000000000100 L"
b1 *
b1 ~
b1 _"
b1 -
b1 }
b1 ^"
0H
16
b1 f
b1 w
b1 8"
b11000000100001 U
b11000000100001 x
b1 2
b1 |
b1 #"
b1 ["
b11000000001000 B
b11000000001000 y
b11000000001000 !"
b11000000100000 "#
b11000000010000 z"
b11000000001100 C
b11000000001100 t
b11000000001100 ."
b11000000001100 w"
b10101100000000010000000000000100 T
b10101100000000010000000000000100 -"
b10101100000000010000000000000100 ?"
b10101100000000010000000000000100 k"
b10000 h"
b11000000010000 g"
1!
#60000
0!
#65000
17
b11000000011000 D
b11000000011000 f"
b11000000011000 v"
b11000000011000 {"
b11000000011000 |"
1e
b11000000100001 h
b11000000100001 ""
b11000000011000 }"
b1 g
b1 v
b1 B"
b0 Y
b0 A"
b0 P"
b11000000100010 V
b11000000100010 u
b11000000100010 R"
b0 /
b0 U"
b10101100000000010000000000001000 S
b10101100000000010000000000001000 ,"
b10101100000000010000000000001000 i"
b11000000011000 y"
b11000000010100 A
b11000000010100 +"
b11000000010100 j"
b11000000010100 x"
1D"
0I
0C"
b100001001100000010001000 r"
b100001001100000010001000 ~"
b1000010011000000100010 W
b1000010011000000100010 m"
b1000010011000000100010 t"
b1100000010001000 !#
b11000000100010 X
b11000000100010 Q"
b11000000100010 l"
b11000000100010 s"
b110 >
b110 n"
b1 .
b1 q
b1 Y"
b1 a"
b1 o"
b100 b
b100 %"
b100 :"
b100 c
b100 9"
bx F
bx 2"
bx N"
b10 k
b10 d"
b10100 h"
b11000000010100 g"
b1111000010011100 "#
b11000000010100 z"
b11000000010000 C
b11000000010000 t
b11000000010000 ."
b11000000010000 w"
b110100001000010011000000100010 T
b110100001000010011000000100010 -"
b110100001000010011000000100010 ?"
b110100001000010011000000100010 k"
b0 -
b0 }
b0 ^"
1H
06
b10 f
b10 w
b10 8"
b100 U
b100 x
b11000000001100 B
b11000000001100 y
b11000000001100 !"
0G
b0 9
b0 ("
b0 M"
15
b11000000100001 a
b11000000100001 &"
b11000000100001 /"
b11000000100001 K"
b1 1
b1 )"
b1 1"
b1 \"
b11000000001000 @
b11000000001000 '"
b11000000001000 0"
b11000000001000 L"
04
b0 E
b0 4"
b0 `
b0 3"
b11000000000100 ?
b11000000000100 5"
b11000000000100 S"
1!
#70000
0!
#75000
0%
b11000000100001 )
07
b11000000011100 D
b11000000011100 f"
b11000000011100 v"
b11000000011100 {"
b11000000100001 i
b11000000100001 7"
b11000000011100 |"
b11000000100001 ;
b11000000100001 r
b11000000100001 V"
b11000000100001 /
b11000000100001 U"
b11000000100001 h
b11000000100001 ""
b10 g
b10 v
b10 B"
b1 Y
b1 A"
b1 P"
b1000 V
b1000 u
b1000 R"
b11000000011100 }"
b0 F
b0 2"
b0 N"
b1 k
b1 d"
b1 m
b1 b"
b11000000100011 b
b11000000100011 %"
b11000000100011 :"
b11000000100010 c
b11000000100010 9"
0D"
1I
1C"
b1000000000000100000 r"
b1000000000000100000 ~"
b10000000000001000 W
b10000000000001000 m"
b10000000000001000 t"
b100000 !#
b1000 X
b1000 Q"
b1000 l"
b1000 s"
b0 >
b0 n"
b0 .
b0 q
b0 Y"
b0 a"
b0 o"
b10001100000000100000000000000000 S
b10001100000000100000000000000000 ,"
b10001100000000100000000000000000 i"
b11000000011100 y"
b11000000011000 A
b11000000011000 +"
b11000000011000 j"
b11000000011000 x"
14
bx E
bx 4"
b11000000100001 `
b11000000100001 3"
b1 0
b1 6"
b1 T"
b1 ]"
b11000000001000 ?
b11000000001000 5"
b11000000001000 S"
1G
b11000000100001 9
b11000000100001 ("
b11000000100001 M"
05
b100 a
b100 &"
b100 /"
b100 K"
b11000000001100 @
b11000000001100 '"
b11000000001100 0"
b11000000001100 L"
b1 -
b1 }
b1 ^"
0H
16
b1 f
b1 w
b1 8"
b11000000100010 U
b11000000100010 x
b11000000010000 B
b11000000010000 y
b11000000010000 !"
b11000000111000 "#
b11000000011000 z"
b11000000010100 C
b11000000010100 t
b11000000010100 ."
b11000000010100 w"
b10101100000000010000000000001000 T
b10101100000000010000000000001000 -"
b10101100000000010000000000001000 ?"
b10101100000000010000000000001000 k"
b11000 h"
b11000000011000 g"
1!
#80000
0!
#85000
1%
b0 )
b11000000100000 D
b11000000100000 f"
b11000000100000 v"
b11000000100000 {"
17
b11000000100000 |"
1e
b11000000100000 }"
b0 V
b0 u
b0 R"
b10 3
b10 n
b0 ;
b0 r
b0 V"
b11000000100011 h
b11000000100011 ""
b0 i
b0 7"
b100 /
b100 U"
b10001100000000100000000000000100 S
b10001100000000100000000000000100 ,"
b10001100000000100000000000000100 i"
b11000000100000 y"
b11000000011100 A
b11000000011100 +"
b11000000011100 j"
b11000000011100 x"
1M
1E"
0I
0C"
b10000000000000000000 r"
b10000000000000000000 ~"
b100000000000000000 W
b100000000000000000 m"
b100000000000000000 t"
b0 !#
b0 X
b0 Q"
b0 l"
b0 s"
b10 +
b10 p
b10 X"
b10 `"
b10 p"
b1000 b
b1000 %"
b1000 :"
b1000 c
b1000 9"
bx F
bx 2"
bx N"
b10 k
b10 d"
b0 m
b0 b"
b11100 h"
b11000000011100 g"
b11000000011100 "#
b11000000011100 z"
b11000000011000 C
b11000000011000 t
b11000000011000 ."
b11000000011000 w"
b10001100000000100000000000000000 T
b10001100000000100000000000000000 -"
b10001100000000100000000000000000 ?"
b10001100000000100000000000000000 k"
b0 -
b0 }
b0 ^"
1H
06
b10 f
b10 w
b10 8"
b1000 U
b1000 x
b11000000100001 :
b11000000100001 {
b11000000010100 B
b11000000010100 y
b11000000010100 !"
0G
15
b11000000100011 a
b11000000100011 &"
b11000000100011 /"
b11000000100011 K"
b11000000010000 @
b11000000010000 '"
b11000000010000 0"
b11000000010000 L"
04
b0 E
b0 4"
b100 `
b100 3"
b11000000001100 ?
b11000000001100 5"
b11000000001100 S"
1!
#90000
0!
#95000
b11000000100100 D
b11000000100100 f"
b11000000100100 v"
b11000000100100 {"
b11000000100100 |"
b11000000100011 /
b11000000100011 U"
b0 h
b0 ""
b0 b
b0 %"
b0 :"
1$
1o
b100 V
b100 u
b100 R"
b11000000100100 }"
b0 F
b0 2"
b0 N"
b0 c
b0 9"
1\
1'
1&
b0 k
b0 d"
b10000000000000010000 r"
b10000000000000010000 ~"
b100000000000000100 W
b100000000000000100 m"
b100000000000000100 t"
b10000 !#
b100 X
b100 Q"
b100 l"
b100 s"
b10001100000000100000000000001000 S
b10001100000000100000000000001000 ,"
b10001100000000100000000000001000 i"
b11000000100100 y"
b11000000100000 A
b11000000100000 +"
b11000000100000 j"
b11000000100000 x"
14
bx E
bx 4"
b11000000100011 `
b11000000100011 3"
b11000000010000 ?
b11000000010000 5"
b11000000010000 S"
1G
b11000000100011 9
b11000000100011 ("
b11000000100011 M"
05
b1000 a
b1000 &"
b1000 /"
b1000 K"
b11000000010100 @
b11000000010100 '"
b11000000010100 0"
b11000000010100 L"
b10 *
b10 ~
b10 _"
0H
16
1L
b0 U
b0 x
b0 :
b0 {
b10 2
b10 |
b10 #"
b10 ["
b11000000011000 B
b11000000011000 y
b11000000011000 !"
b11000000110000 "#
b11000000100000 z"
b11000000011100 C
b11000000011100 t
b11000000011100 ."
b11000000011100 w"
b10001100000000100000000000000100 T
b10001100000000100000000000000100 -"
b10001100000000100000000000000100 ?"
b10001100000000100000000000000100 k"
b100000 h"
b11000000100000 g"
1!
#100000
0!
#105000
0o
b1000 /
b1000 U"
b11000001000000 F
b11000001000000 2"
b11000001000000 N"
0\
0'
0&
b0 *
b0 ~
b0 _"
06
0L
0d
b0 f
b0 w
b0 8"
b0 2
b0 |
b0 #"
b0 ["
b11000000000000 B
b11000000000000 y
b11000000000000 !"
0G
b0 9
b0 ("
b0 M"
15
1K
b0 a
b0 &"
b0 /"
b0 K"
b10 1
b10 )"
b10 1"
b10 \"
b11000000011000 @
b11000000011000 '"
b11000000011000 0"
b11000000011000 L"
04
b0 E
b0 4"
b1000 `
b1000 3"
b11000000010100 ?
b11000000010100 5"
b11000000010100 S"
1!
#110000
0!
#115000
0%
b11000001000000 )
b11000000101000 D
b11000000101000 f"
b11000000101000 v"
b11000000101000 {"
b11000000101000 |"
b11000001000000 ;
b11000001000000 r
b11000001000000 V"
b11000001000000 /
b11000001000000 U"
b100 b
b100 %"
b100 :"
0$
1o
b11000001000000 h
b11000001000000 ""
b1000 V
b1000 u
b1000 R"
b11000000101000 }"
b100 c
b100 9"
1\
1'
1&
b1 k
b1 d"
b10000000000000100000 r"
b10000000000000100000 ~"
b100000000000001000 W
b100000000000001000 m"
b100000000000001000 t"
b100000 !#
b1000 X
b1000 Q"
b1000 l"
b1000 s"
b10001100000000100000000000000000 S
b10001100000000100000000000000000 ,"
b10001100000000100000000000000000 i"
b11000000101000 y"
b11000000100100 A
b11000000100100 +"
b11000000100100 j"
b11000000100100 x"
14
1J
b11000001000000 E
b11000001000000 4"
b0 `
b0 3"
b10 0
b10 6"
b10 T"
b10 ]"
b11000000011000 ?
b11000000011000 5"
b11000000011000 S"
05
0K
b0 1
b0 )"
b0 1"
b0 \"
b11000000000000 @
b11000000000000 '"
b11000000000000 0"
b11000000000000 L"
b10 *
b10 ~
b10 _"
16
1L
1d
b10 f
b10 w
b10 8"
b100 U
b100 x
b10 2
b10 |
b10 #"
b10 ["
b11000000011100 B
b11000000011100 y
b11000000011100 !"
b11000001000100 "#
b11000000100100 z"
b11000000100000 C
b11000000100000 t
b11000000100000 ."
b11000000100000 w"
b10001100000000100000000000001000 T
b10001100000000100000000000001000 -"
b10001100000000100000000000001000 ?"
b10001100000000100000000000001000 k"
b100100 h"
b11000000100100 g"
1!
#120000
0!
