P4/mipst.vcd
$date
	Fri Nov 01 09:49:43 2024
$end
$version
	Icarus Verilog
$end
$timescale
	1ps
$end
$scope module tb_mips $end
$var reg 1 ! clk $end
$var reg 1 " reset $end
$scope module u_mips $end
$var wire 1 ! clk $end
$var wire 1 " reset $end
$var wire 32 # t_regData [31:0] $end
$var wire 5 $ t_regAddr [4:0] $end
$var wire 32 % t_rdata2 [31:0] $end
$var wire 32 & t_rdata1 [31:0] $end
$var wire 1 ' s_zero $end
$var wire 1 ( s_regWrite $end
$var wire 3 ) s_regDst [2:0] $end
$var wire 1 * s_memWrite $end
$var wire 1 + s_memToReg $end
$var wire 1 , s_jump $end
$var wire 1 - s_jr $end
$var wire 32 . s_instr [31:0] $end
$var wire 3 / s_extOp [2:0] $end
$var wire 1 0 s_branch $end
$var wire 1 1 s_aluSrc $end
$var wire 3 2 s_aluOp [2:0] $end
$var wire 5 3 r_rt [4:0] $end
$var wire 5 4 r_rs [4:0] $end
$var wire 5 5 r_rd [4:0] $end
$var wire 26 6 r_imm26 [25:0] $end
$var wire 16 7 r_imm16 [15:0] $end
$var wire 32 8 _pc [31:0] $end
$var wire 32 9 _next_pc [31:0] $end
$var wire 32 : _mem_res [31:0] $end
$var wire 32 ; _extended_imm16 [31:0] $end
$var wire 32 < _alu_res [31:0] $end
$var wire 32 = _alu_B [31:0] $end
$scope module m_alu $end
$var wire 32 > B [31:0] $end
$var wire 3 ? ALUOp [2:0] $end
$var wire 32 @ A [31:0] $end
$var reg 32 A result [31:0] $end
$var reg 1 ' zero $end
$upscope $end
$scope module m_alusrcmux $end
$var wire 32 B regnum [31:0] $end
$var wire 32 C imm32 [31:0] $end
$var wire 1 1 aluSrc $end
$var reg 32 D out [31:0] $end
$upscope $end
$scope module m_controller $end
$var wire 1 E _add $end
$var wire 1 F _jalr $end
$var wire 1 G _jr $end
$var wire 1 H _sub $end
$var wire 1 1 aluSrc $end
$var wire 1 0 branch $end
$var wire 1 - jr $end
$var wire 1 , jump $end
$var wire 1 + memToReg $end
$var wire 1 * memWrite $end
$var wire 1 ( regWrite $end
$var wire 3 I regDst [2:0] $end
$var wire 32 J instr [31:0] $end
$var wire 3 K extOp [2:0] $end
$var wire 3 L aluOp [2:0] $end
$var wire 1 M _sw $end
$var wire 1 N _ori $end
$var wire 1 O _lw $end
$var wire 1 P _lui $end
$var wire 1 Q _jal $end
$var wire 1 R _j $end
$var wire 1 S _beq $end
$var wire 1 T _R $end
$upscope $end
$scope module m_dm $end
$var wire 32 U addr [31:0] $end
$var wire 1 ! clk $end
$var wire 1 * memWrite $end
$var wire 1 " reset $end
$var wire 32 V writeData [31:0] $end
$var wire 32 W pc [31:0] $end
$var reg 32 X readData [31:0] $end
$var integer 32 Y i [31:0] $end
$upscope $end
$scope module m_ext $end
$var wire 3 Z extOp [2:0] $end
$var wire 16 [ imm16 [15:0] $end
$var reg 32 \ out32 [31:0] $end
$upscope $end
$scope module m_grf $end
$var wire 1 ! clk $end
$var wire 32 ] rdata1 [31:0] $end
$var wire 32 ^ rdata2 [31:0] $end
$var wire 1 " reset $end
$var wire 1 ( wenable $end
$var wire 32 _ wdata [31:0] $end
$var wire 5 ` waddr [4:0] $end
$var wire 5 a raddr2 [4:0] $end
$var wire 5 b raddr1 [4:0] $end
$var wire 32 c PC [31:0] $end
$var integer 32 d i [31:0] $end
$upscope $end
$scope module m_im $end
$var wire 1 ! clk $end
$var wire 1 " reset $end
$var wire 32 e next_pc [31:0] $end
$var reg 32 f _pc [31:0] $end
$var reg 32 g _pc_to_mem [31:0] $end
$var reg 32 h instr [31:0] $end
$var reg 32 i pc [31:0] $end
$upscope $end
$scope module m_insextractor $end
$var wire 32 j instr [31:0] $end
$var reg 16 k imm16 [15:0] $end
$var reg 26 l imm26 [25:0] $end
$var reg 5 m rd [4:0] $end
$var reg 5 n rs [4:0] $end
$var reg 5 o rt [4:0] $end
$upscope $end
$scope module m_nextpc $end
$var wire 32 p _jr_target [31:0] $end
$var wire 32 q _jump_target [31:0] $end
$var wire 1 0 branch $end
$var wire 16 r imm16 [15:0] $end
$var wire 26 s imm26 [25:0] $end
$var wire 1 - jr $end
$var wire 1 , jump $end
$var wire 32 t next_pc [31:0] $end
$var wire 32 u pc [31:0] $end
$var wire 1 ' zero $end
$var wire 32 v imm32 [31:0] $end
$var wire 32 w _pc_plus_4 [31:0] $end
$var wire 32 x _mux3 [31:0] $end
$var wire 32 y _mux2 [31:0] $end
$var wire 32 z _mux1 [31:0] $end
$var wire 32 { _extended_imm26 [31:0] $end
$var wire 32 | _extended_imm16 [31:0] $end
$var wire 32 } _branch_target [31:0] $end
$upscope $end
$scope module m_regmux $end
$var wire 5 ~ rd [4:0] $end
$var wire 3 !" regDst [2:0] $end
$var wire 5 "" rt [4:0] $end
$var reg 5 #" out [4:0] $end
$upscope $end
$scope module m_regwritemux $end
$var wire 32 $" aluout [31:0] $end
$var wire 1 , jump $end
$var wire 1 + memToReg $end
$var wire 32 %" memout [31:0] $end
$var wire 32 &" pc [31:0] $end
$var reg 32 '" _mux1 [31:0] $end
$var reg 32 (" out [31:0] $end
$upscope $end
$upscope $end
$upscope $end
$enddefinitions $end
$comment Show the parameter values. $end
$dumpall
$end
#0
$dumpvars
bx ("
bx '"
bx &"
bx %"
bx $"
b0 #"
bx ""
b0xx !"
bx ~
bx }
bx00 |
bx00 {
bx z
bx y
bx x
bx w
bx v
bx u
bx t
bx s
bx r
bx00 q
bx p
bx o
bx n
bx m
bx l
bx k
bx j
bx i
bx h
bx g
bx f
bx e
bx d
bx c
bx b
bx a
b0 `
bx _
bx ^
bx ]
b0xxxxxxxxxxxxxxxx \
bx [
b0xx Z
b0 Y
bx X
bx W
bx V
bx U
xT
xS
xR
xQ
xP
xO
xN
xM
b0xx L
b0xx K
bx J
b0xx I
xH
xG
xF
xE
bx D
b0xxxxxxxxxxxxxxxx C
bx B
bx A
bx @
b0xx ?
bx >
bx =
bx <
b0xxxxxxxxxxxxxxxx ;
bx :
bx 9
bx 8
bx 7
bx 6
bx 5
bx 4
bx 3
b0xx 2
x1
x0
b0xx /
bx .
x-
x,
x+
x*
b0xx )
x(
x'
bx &
bx %
b0 $
bx #
1"
0!
$end
#5000
b0 :
b0 X
b0 %"
b1 p
b1 #
b1 _
b1 v
b1 ("
b1 '"
b1 <
b1 A
b1 U
b1 $"
1(
b1 $
b1 `
b1 #"
b11000000000100 9
b11000000000100 e
b11000000000100 t
b11000000000100 x
b11000000000100 y
11
0-
b11000000000100 z
0'
0,
b1 2
b1 ?
b1 L
0H
0E
0F
0G
b11000000001000 }
b1 ;
b1 C
b1 \
b1 =
b1 >
b1 D
b0 )
b0 I
b0 !"
0Q
0R
00
0S
0*
0M
0+
0O
1N
b0 /
b0 K
b0 Z
0P
0T
b1000010000000000000001 6
b1000010000000000000001 l
b1000010000000000000001 s
b100 |
b1 7
b1 [
b1 k
b1 r
b0 5
b0 m
b0 ~
b0 %
b0 B
b0 V
b0 ^
b1 3
b1 a
b1 o
b1 ""
b0 &
b0 @
b0 ]
b1 4
b1 b
b1 n
b100001000000000000000100 q
b100001000000000000000100 {
b110100001000010000000000000001 .
b110100001000010000000000000001 J
b110100001000010000000000000001 h
b110100001000010000000000000001 j
b11000000000100 w
b11000000000000 8
b11000000000000 W
b11000000000000 c
b11000000000000 i
b11000000000000 u
b11000000000000 &"
b0 g
b11000000000000 f
b100000 d
b101111111111 Y
1!
#10000
0!
#15000
b101111111111 Y
b100000 d
1!
#20000
0!
0"
#25000
b1010 p
b1010 #
b1010 _
b1010 v
b1010 ("
b1010 '"
b1010 <
b1010 A
b1010 U
b1010 $"
b1010 =
b1010 >
b1010 D
b11000000001000 9
b11000000001000 e
b11000000001000 t
b11000000001000 x
b1010 ;
b1010 C
b1010 \
b100 $
b100 `
b100 #"
b11000000001000 y
b10000100000000000000101000 q
b10000100000000000000101000 {
b100001000000000000001010 6
b100001000000000000001010 l
b100001000000000000001010 s
b101000 |
b1010 7
b1010 [
b1010 k
b1010 r
b100 3
b100 a
b100 o
b100 ""
b100 4
b100 b
b100 n
b11000000001000 z
b110100100001000000000000001010 .
b110100100001000000000000001010 J
b110100100001000000000000001010 h
b110100100001000000000000001010 j
b11000000110000 }
b11000000001000 w
b11000000000100 8
b11000000000100 W
b11000000000100 c
b11000000000100 i
b11000000000100 u
b11000000000100 &"
b100 g
b11000000000100 f
0'
b0 &
b0 @
b0 ]
b0 %
b0 B
b0 V
b0 ^
1!
#30000
0!
#35000
1(
b1 p
b1 #
b1 _
b1 v
b1 ("
b1 '"
01
b1 )
b1 I
b1 !"
b1 <
b1 A
b1 U
b1 $"
b1 =
b1 >
b1 D
b11000000001100 9
b11000000001100 e
b11000000001100 t
b11000000001100 x
b10 2
b10 ?
b10 L
1E
b1000000100000 ;
b1000000100000 C
b1000000100000 \
b10 $
b10 `
b10 #"
b11000000001100 y
0N
1T
b1000001000100000010000000 q
b1000001000100000010000000 {
b10000010001000000100000 6
b10000010001000000100000 l
b10000010001000000100000 s
b100000010000000 |
b1000000100000 7
b1000000100000 [
b1000000100000 k
b1000000100000 r
b10 5
b10 m
b10 ~
b1 3
b1 a
b1 o
b1 ""
b10 4
b10 b
b10 n
b11000000001100 z
b10000010001000000100000 .
b10000010001000000100000 J
b10000010001000000100000 h
b10000010001000000100000 j
b111000010001100 }
b11000000001100 w
b11000000001000 8
b11000000001000 W
b11000000001000 c
b11000000001000 i
b11000000001000 u
b11000000001000 &"
b1000 g
b11000000001000 f
0'
b0 &
b0 @
b0 ]
b1 %
b1 B
b1 V
b1 ^
1!
#40000
0!
#45000
0(
b0 2
b0 ?
b0 L
b0 )
b0 I
b0 !"
b11000000010000 9
b11000000010000 e
b11000000010000 t
b11000000010000 x
0E
b1 ;
b1 C
b1 \
b10 $
b10 `
b10 #"
b11000000010000 y
10
1S
0T
b10000010000000000000000100 q
b10000010000000000000000100 {
b100000100000000000000001 6
b100000100000000000000001 l
b100000100000000000000001 s
b100 |
b1 7
b1 [
b1 k
b1 r
b0 5
b0 m
b0 ~
b10 3
b10 a
b10 o
b10 ""
b100 4
b100 b
b100 n
b11000000010000 z
b10000100000100000000000000001 .
b10000100000100000000000000001 J
b10000100000100000000000000001 h
b10000100000100000000000000001 j
b11000000010100 }
b11000000010000 w
b11000000001100 8
b11000000001100 W
b11000000001100 c
b11000000001100 i
b11000000001100 u
b11000000001100 &"
b1100 g
b11000000001100 f
b0 p
b0 #
b0 _
b0 v
b0 ("
b0 '"
b0 <
b0 A
b0 U
b0 $"
0'
b1010 &
b1010 @
b1010 ]
1!
#50000
0!
#55000
b11000000010100 p
b11000000010100 #
b11000000010100 _
b11000000010100 v
b11000000010100 ("
1'
b11000000001000 9
b11000000001000 e
b11000000001000 t
b11000000001000 x
1,
b110000000010 ;
b110000000010 C
b110000000010 \
b0 =
b0 >
b0 D
b0 $
b0 `
b0 #"
b11000000001000 y
1R
00
0S
b11000000001000 q
b11000000001000 {
b110000000010 6
b110000000010 l
b110000000010 s
b11000000001000 |
b110000000010 7
b110000000010 [
b110000000010 k
b110000000010 r
b1 5
b1 m
b1 ~
b0 %
b0 B
b0 V
b0 ^
b0 3
b0 a
b0 o
b0 ""
b0 &
b0 @
b0 ]
b0 4
b0 b
b0 n
b11000000010100 z
b1000000000000000110000000010 .
b1000000000000000110000000010 J
b1000000000000000110000000010 h
b1000000000000000110000000010 j
b110000000011100 }
b11000000010100 w
b11000000010000 8
b11000000010000 W
b11000000010000 c
b11000000010000 i
b11000000010000 u
b11000000010000 &"
b10000 g
b11000000010000 f
1!
#60000
0!
#65000
1(
b10 2
b10 ?
b10 L
b1 )
b1 I
b1 !"
b10 '"
b11000000001100 9
b11000000001100 e
b11000000001100 t
b11000000001100 x
b10 <
b10 A
b10 U
b10 $"
0,
1E
b11000000001100 y
b1000000100000 ;
b1000000100000 C
b1000000100000 \
b1 =
b1 >
b1 D
b10 $
b10 `
b10 #"
1'
0R
1T
b1000001000100000010000000 q
b1000001000100000010000000 {
b10000010001000000100000 6
b10000010001000000100000 l
b10000010001000000100000 s
b100000010000000 |
b1000000100000 7
b1000000100000 [
b1000000100000 k
b1000000100000 r
b10 5
b10 m
b10 ~
b1 %
b1 B
b1 V
b1 ^
b1 3
b1 a
b1 o
b1 ""
b1 &
b1 @
b1 ]
b10 4
b10 b
b10 n
b11000000001100 z
b10 p
b10 #
b10 _
b10 v
b10 ("
b10000010001000000100000 .
b10000010001000000100000 J
b10000010001000000100000 h
b10000010001000000100000 j
b111000010001100 }
b11000000001100 w
b11000000001000 8
b11000000001000 W
b11000000001000 c
b11000000001000 i
b11000000001000 u
b11000000001000 &"
b1000 g
b11000000001000 f
1!
#70000
0!
#75000
0(
b0 2
b0 ?
b0 L
b0 )
b0 I
b0 !"
b11000000010000 9
b11000000010000 e
b11000000010000 t
b11000000010000 x
0E
b1 ;
b1 C
b1 \
b10 =
b10 >
b10 D
b10 $
b10 `
b10 #"
b11000000010000 y
10
1S
0T
b10000010000000000000000100 q
b10000010000000000000000100 {
b100000100000000000000001 6
b100000100000000000000001 l
b100000100000000000000001 s
b100 |
b1 7
b1 [
b1 k
b1 r
b0 5
b0 m
b0 ~
b10 %
b10 B
b10 V
b10 ^
b10 3
b10 a
b10 o
b10 ""
b100 4
b100 b
b100 n
b11000000010000 z
b10000100000100000000000000001 .
b10000100000100000000000000001 J
b10000100000100000000000000001 h
b10000100000100000000000000001 j
b11000000010100 }
b11000000010000 w
b11000000001100 8
b11000000001100 W
b11000000001100 c
b11000000001100 i
b11000000001100 u
b11000000001100 &"
b1100 g
b11000000001100 f
b10 p
b10 #
b10 _
b10 v
b10 ("
b10 '"
b10 <
b10 A
b10 U
b10 $"
0'
b1010 &
b1010 @
b1010 ]
1!
#80000
0!
#85000
1'
b11000000010100 p
b11000000010100 #
b11000000010100 _
b11000000010100 v
b11000000010100 ("
b0 '"
b11000000001000 9
b11000000001000 e
b11000000001000 t
b11000000001000 x
1,
b110000000010 ;
b110000000010 C
b110000000010 \
b0 =
b0 >
b0 D
b0 $
b0 `
b0 #"
b0 <
b0 A
b0 U
b0 $"
b11000000001000 y
1R
00
0S
b11000000001000 q
b11000000001000 {
b110000000010 6
b110000000010 l
b110000000010 s
b11000000001000 |
b110000000010 7
b110000000010 [
b110000000010 k
b110000000010 r
b1 5
b1 m
b1 ~
b0 %
b0 B
b0 V
b0 ^
b0 3
b0 a
b0 o
b0 ""
b0 &
b0 @
b0 ]
b0 4
b0 b
b0 n
b11000000010100 z
b1000000000000000110000000010 .
b1000000000000000110000000010 J
b1000000000000000110000000010 h
b1000000000000000110000000010 j
b110000000011100 }
b11000000010100 w
b11000000010000 8
b11000000010000 W
b11000000010000 c
b11000000010000 i
b11000000010000 u
b11000000010000 &"
b10000 g
b11000000010000 f
1!
#90000
0!
#95000
b11 '"
b11 <
b11 A
b11 U
b11 $"
1(
b10 2
b10 ?
b10 L
b1 )
b1 I
b1 !"
b11000000001100 9
b11000000001100 e
b11000000001100 t
b11000000001100 x
0,
1E
b11000000001100 y
b1000000100000 ;
b1000000100000 C
b1000000100000 \
b1 =
b1 >
b1 D
b10 $
b10 `
b10 #"
0'
0R
1T
b1000001000100000010000000 q
b1000001000100000010000000 {
b10000010001000000100000 6
b10000010001000000100000 l
b10000010001000000100000 s
b100000010000000 |
b1000000100000 7
b1000000100000 [
b1000000100000 k
b1000000100000 r
b10 5
b10 m
b10 ~
b1 %
b1 B
b1 V
b1 ^
b1 3
b1 a
b1 o
b1 ""
b10 &
b10 @
b10 ]
b10 4
b10 b
b10 n
b11000000001100 z
b11 p
b11 #
b11 _
b11 v
b11 ("
b10000010001000000100000 .
b10000010001000000100000 J
b10000010001000000100000 h
b10000010001000000100000 j
b111000010001100 }
b11000000001100 w
b11000000001000 8
b11000000001000 W
b11000000001000 c
b11000000001000 i
b11000000001000 u
b11000000001000 &"
b1000 g
b11000000001000 f
1!
#100000
0!
#105000
0(
b0 2
b0 ?
b0 L
b0 )
b0 I
b0 !"
b11000000010000 9
b11000000010000 e
b11000000010000 t
b11000000010000 x
0E
b1 ;
b1 C
b1 \
b11 =
b11 >
b11 D
b10 $
b10 `
b10 #"
b11000000010000 y
10
1S
0T
b10000010000000000000000100 q
b10000010000000000000000100 {
b100000100000000000000001 6
b100000100000000000000001 l
b100000100000000000000001 s
b100 |
b1 7
b1 [
b1 k
b1 r
b0 5
b0 m
b0 ~
b11 %
b11 B
b11 V
b11 ^
b10 3
b10 a
b10 o
b10 ""
b100 4
b100 b
b100 n
b11000000010000 z
b10000100000100000000000000001 .
b10000100000100000000000000001 J
b10000100000100000000000000001 h
b10000100000100000000000000001 j
b11000000010100 }
b11000000010000 w
b11000000001100 8
b11000000001100 W
b11000000001100 c
b11000000001100 i
b11000000001100 u
b11000000001100 &"
b1100 g
b11000000001100 f
b10 p
b10 #
b10 _
b10 v
b10 ("
b10 '"
b10 <
b10 A
b10 U
b10 $"
b1010 &
b1010 @
b1010 ]
1!
#110000
0!
#115000
1'
b11000000010100 p
b11000000010100 #
b11000000010100 _
b11000000010100 v
b11000000010100 ("
b0 '"
b11000000001000 9
b11000000001000 e
b11000000001000 t
b11000000001000 x
1,
b110000000010 ;
b110000000010 C
b110000000010 \
b0 =
b0 >
b0 D
b0 $
b0 `
b0 #"
b0 <
b0 A
b0 U
b0 $"
b11000000001000 y
1R
00
0S
b11000000001000 q
b11000000001000 {
b110000000010 6
b110000000010 l
b110000000010 s
b11000000001000 |
b110000000010 7
b110000000010 [
b110000000010 k
b110000000010 r
b1 5
b1 m
b1 ~
b0 %
b0 B
b0 V
b0 ^
b0 3
b0 a
b0 o
b0 ""
b0 &
b0 @
b0 ]
b0 4
b0 b
b0 n
b11000000010100 z
b1000000000000000110000000010 .
b1000000000000000110000000010 J
b1000000000000000110000000010 h
b1000000000000000110000000010 j
b110000000011100 }
b11000000010100 w
b11000000010000 8
b11000000010000 W
b11000000010000 c
b11000000010000 i
b11000000010000 u
b11000000010000 &"
b10000 g
b11000000010000 f
1!
#120000
0!
#125000
1(
b10 2
b10 ?
b10 L
b1 )
b1 I
b1 !"
b100 '"
b11000000001100 9
b11000000001100 e
b11000000001100 t
b11000000001100 x
b100 <
b100 A
b100 U
b100 $"
0,
1E
b11000000001100 y
b1000000100000 ;
b1000000100000 C
b1000000100000 \
b1 =
b1 >
b1 D
b10 $
b10 `
b10 #"
0'
0R
1T
b1000001000100000010000000 q
b1000001000100000010000000 {
b10000010001000000100000 6
b10000010001000000100000 l
b10000010001000000100000 s
b100000010000000 |
b1000000100000 7
b1000000100000 [
b1000000100000 k
b1000000100000 r
b10 5
b10 m
b10 ~
b1 %
b1 B
b1 V
b1 ^
b1 3
b1 a
b1 o
b1 ""
b11 &
b11 @
b11 ]
b10 4
b10 b
b10 n
b11000000001100 z
b100 p
b100 #
b100 _
b100 v
b100 ("
b10000010001000000100000 .
b10000010001000000100000 J
b10000010001000000100000 h
b10000010001000000100000 j
b111000010001100 }
b11000000001100 w
b11000000001000 8
b11000000001000 W
b11000000001000 c
b11000000001000 i
b11000000001000 u
b11000000001000 &"
b1000 g
b11000000001000 f
1!
#130000
0!
#135000
0(
b0 2
b0 ?
b0 L
b0 )
b0 I
b0 !"
b11000000010000 9
b11000000010000 e
b11000000010000 t
b11000000010000 x
0E
b1 ;
b1 C
b1 \
b100 =
b100 >
b100 D
b10 $
b10 `
b10 #"
b11000000010000 y
10
1S
0T
b10000010000000000000000100 q
b10000010000000000000000100 {
b100000100000000000000001 6
b100000100000000000000001 l
b100000100000000000000001 s
b100 |
b1 7
b1 [
b1 k
b1 r
b0 5
b0 m
b0 ~
b100 %
b100 B
b100 V
b100 ^
b10 3
b10 a
b10 o
b10 ""
b100 4
b100 b
b100 n
b11000000010000 z
b10000100000100000000000000001 .
b10000100000100000000000000001 J
b10000100000100000000000000001 h
b10000100000100000000000000001 j
b11000000010100 }
b11000000010000 w
b11000000001100 8
b11000000001100 W
b11000000001100 c
b11000000001100 i
b11000000001100 u
b11000000001100 &"
b1100 g
b11000000001100 f
b0 p
b0 #
b0 _
b0 v
b0 ("
b0 '"
b0 <
b0 A
b0 U
b0 $"
b1010 &
b1010 @
b1010 ]
1!
#140000
0!
#145000
b11000000010100 p
b11000000010100 #
b11000000010100 _
b11000000010100 v
b11000000010100 ("
1'
b11000000001000 9
b11000000001000 e
b11000000001000 t
b11000000001000 x
1,
b110000000010 ;
b110000000010 C
b110000000010 \
b0 =
b0 >
b0 D
b0 $
b0 `
b0 #"
b11000000001000 y
1R
00
0S
b11000000001000 q
b11000000001000 {
b110000000010 6
b110000000010 l
b110000000010 s
b11000000001000 |
b110000000010 7
b110000000010 [
b110000000010 k
b110000000010 r
b1 5
b1 m
b1 ~
b0 %
b0 B
b0 V
b0 ^
b0 3
b0 a
b0 o
b0 ""
b0 &
b0 @
b0 ]
b0 4
b0 b
b0 n
b11000000010100 z
b1000000000000000110000000010 .
b1000000000000000110000000010 J
b1000000000000000110000000010 h
b1000000000000000110000000010 j
b110000000011100 }
b11000000010100 w
b11000000010000 8
b11000000010000 W
b11000000010000 c
b11000000010000 i
b11000000010000 u
b11000000010000 &"
b10000 g
b11000000010000 f
1!
#150000
0!
#155000
b101 '"
b101 <
b101 A
b101 U
b101 $"
1(
b10 2
b10 ?
b10 L
b1 )
b1 I
b1 !"
b11000000001100 9
b11000000001100 e
b11000000001100 t
b11000000001100 x
0,
1E
b11000000001100 y
b1000000100000 ;
b1000000100000 C
b1000000100000 \
b1 =
b1 >
b1 D
b10 $
b10 `
b10 #"
0'
0R
1T
b1000001000100000010000000 q
b1000001000100000010000000 {
b10000010001000000100000 6
b10000010001000000100000 l
b10000010001000000100000 s
b100000010000000 |
b1000000100000 7
b1000000100000 [
b1000000100000 k
b1000000100000 r
b10 5
b10 m
b10 ~
b1 %
b1 B
b1 V
b1 ^
b1 3
b1 a
b1 o
b1 ""
b100 &
b100 @
b100 ]
b10 4
b10 b
b10 n
b11000000001100 z
b101 p
b101 #
b101 _
b101 v
b101 ("
b10000010001000000100000 .
b10000010001000000100000 J
b10000010001000000100000 h
b10000010001000000100000 j
b111000010001100 }
b11000000001100 w
b11000000001000 8
b11000000001000 W
b11000000001000 c
b11000000001000 i
b11000000001000 u
b11000000001000 &"
b1000 g
b11000000001000 f
1!
#160000
0!
#165000
0(
b0 2
b0 ?
b0 L
b0 )
b0 I
b0 !"
b11000000010000 9
b11000000010000 e
b11000000010000 t
b11000000010000 x
0E
b1 ;
b1 C
b1 \
b101 =
b101 >
b101 D
b10 $
b10 `
b10 #"
b11000000010000 y
10
1S
0T
b10000010000000000000000100 q
b10000010000000000000000100 {
b100000100000000000000001 6
b100000100000000000000001 l
b100000100000000000000001 s
b100 |
b1 7
b1 [
b1 k
b1 r
b0 5
b0 m
b0 ~
b101 %
b101 B
b101 V
b101 ^
b10 3
b10 a
b10 o
b10 ""
b100 4
b100 b
b100 n
b11000000010000 z
b10000100000100000000000000001 .
b10000100000100000000000000001 J
b10000100000100000000000000001 h
b10000100000100000000000000001 j
b11000000010100 }
b11000000010000 w
b11000000001100 8
b11000000001100 W
b11000000001100 c
b11000000001100 i
b11000000001100 u
b11000000001100 &"
b1100 g
b11000000001100 f
b0 p
b0 #
b0 _
b0 v
b0 ("
b0 '"
b0 <
b0 A
b0 U
b0 $"
b1010 &
b1010 @
b1010 ]
1!
#170000
0!
#175000
b11000000010100 p
b11000000010100 #
b11000000010100 _
b11000000010100 v
b11000000010100 ("
1'
b11000000001000 9
b11000000001000 e
b11000000001000 t
b11000000001000 x
1,
b110000000010 ;
b110000000010 C
b110000000010 \
b0 =
b0 >
b0 D
b0 $
b0 `
b0 #"
b11000000001000 y
1R
00
0S
b11000000001000 q
b11000000001000 {
b110000000010 6
b110000000010 l
b110000000010 s
b11000000001000 |
b110000000010 7
b110000000010 [
b110000000010 k
b110000000010 r
b1 5
b1 m
b1 ~
b0 %
b0 B
b0 V
b0 ^
b0 3
b0 a
b0 o
b0 ""
b0 &
b0 @
b0 ]
b0 4
b0 b
b0 n
b11000000010100 z
b1000000000000000110000000010 .
b1000000000000000110000000010 J
b1000000000000000110000000010 h
b1000000000000000110000000010 j
b110000000011100 }
b11000000010100 w
b11000000010000 8
b11000000010000 W
b11000000010000 c
b11000000010000 i
b11000000010000 u
b11000000010000 &"
b10000 g
b11000000010000 f
1!
#180000
0!
#185000
1(
b10 2
b10 ?
b10 L
b1 )
b1 I
b1 !"
b110 '"
b11000000001100 9
b11000000001100 e
b11000000001100 t
b11000000001100 x
b110 <
b110 A
b110 U
b110 $"
0,
1E
b11000000001100 y
b1000000100000 ;
b1000000100000 C
b1000000100000 \
b1 =
b1 >
b1 D
b10 $
b10 `
b10 #"
0'
0R
1T
b1000001000100000010000000 q
b1000001000100000010000000 {
b10000010001000000100000 6
b10000010001000000100000 l
b10000010001000000100000 s
b100000010000000 |
b1000000100000 7
b1000000100000 [
b1000000100000 k
b1000000100000 r
b10 5
b10 m
b10 ~
b1 %
b1 B
b1 V
b1 ^
b1 3
b1 a
b1 o
b1 ""
b101 &
b101 @
b101 ]
b10 4
b10 b
b10 n
b11000000001100 z
b110 p
b110 #
b110 _
b110 v
b110 ("
b10000010001000000100000 .
b10000010001000000100000 J
b10000010001000000100000 h
b10000010001000000100000 j
b111000010001100 }
b11000000001100 w
b11000000001000 8
b11000000001000 W
b11000000001000 c
b11000000001000 i
b11000000001000 u
b11000000001000 &"
b1000 g
b11000000001000 f
1!
#190000
0!
#195000
0(
b0 2
b0 ?
b0 L
b0 )
b0 I
b0 !"
b11000000010000 9
b11000000010000 e
b11000000010000 t
b11000000010000 x
0E
b1 ;
b1 C
b1 \
b110 =
b110 >
b110 D
b10 $
b10 `
b10 #"
b11000000010000 y
10
1S
0T
b10000010000000000000000100 q
b10000010000000000000000100 {
b100000100000000000000001 6
b100000100000000000000001 l
b100000100000000000000001 s
b100 |
b1 7
b1 [
b1 k
b1 r
b0 5
b0 m
b0 ~
b110 %
b110 B
b110 V
b110 ^
b10 3
b10 a
b10 o
b10 ""
b100 4
b100 b
b100 n
b11000000010000 z
b10000100000100000000000000001 .
b10000100000100000000000000001 J
b10000100000100000000000000001 h
b10000100000100000000000000001 j
b11000000010100 }
b11000000010000 w
b11000000001100 8
b11000000001100 W
b11000000001100 c
b11000000001100 i
b11000000001100 u
b11000000001100 &"
b1100 g
b11000000001100 f
b10 p
b10 #
b10 _
b10 v
b10 ("
b10 '"
b10 <
b10 A
b10 U
b10 $"
b1010 &
b1010 @
b1010 ]
1!
#200000
0!
#205000
1'
b11000000010100 p
b11000000010100 #
b11000000010100 _
b11000000010100 v
b11000000010100 ("
b0 '"
b11000000001000 9
b11000000001000 e
b11000000001000 t
b11000000001000 x
1,
b110000000010 ;
b110000000010 C
b110000000010 \
b0 =
b0 >
b0 D
b0 $
b0 `
b0 #"
b0 <
b0 A
b0 U
b0 $"
b11000000001000 y
1R
00
0S
b11000000001000 q
b11000000001000 {
b110000000010 6
b110000000010 l
b110000000010 s
b11000000001000 |
b110000000010 7
b110000000010 [
b110000000010 k
b110000000010 r
b1 5
b1 m
b1 ~
b0 %
b0 B
b0 V
b0 ^
b0 3
b0 a
b0 o
b0 ""
b0 &
b0 @
b0 ]
b0 4
b0 b
b0 n
b11000000010100 z
b1000000000000000110000000010 .
b1000000000000000110000000010 J
b1000000000000000110000000010 h
b1000000000000000110000000010 j
b110000000011100 }
b11000000010100 w
b11000000010000 8
b11000000010000 W
b11000000010000 c
b11000000010000 i
b11000000010000 u
b11000000010000 &"
b10000 g
b11000000010000 f
1!
#210000
0!
#215000
b111 '"
b111 <
b111 A
b111 U
b111 $"
1(
b10 2
b10 ?
b10 L
b1 )
b1 I
b1 !"
b11000000001100 9
b11000000001100 e
b11000000001100 t
b11000000001100 x
0,
1E
b11000000001100 y
b1000000100000 ;
b1000000100000 C
b1000000100000 \
b1 =
b1 >
b1 D
b10 $
b10 `
b10 #"
0'
0R
1T
b1000001000100000010000000 q
b1000001000100000010000000 {
b10000010001000000100000 6
b10000010001000000100000 l
b10000010001000000100000 s
b100000010000000 |
b1000000100000 7
b1000000100000 [
b1000000100000 k
b1000000100000 r
b10 5
b10 m
b10 ~
b1 %
b1 B
b1 V
b1 ^
b1 3
b1 a
b1 o
b1 ""
b110 &
b110 @
b110 ]
b10 4
b10 b
b10 n
b11000000001100 z
b111 p
b111 #
b111 _
b111 v
b111 ("
b10000010001000000100000 .
b10000010001000000100000 J
b10000010001000000100000 h
b10000010001000000100000 j
b111000010001100 }
b11000000001100 w
b11000000001000 8
b11000000001000 W
b11000000001000 c
b11000000001000 i
b11000000001000 u
b11000000001000 &"
b1000 g
b11000000001000 f
1!
#220000
0!
